…
  add_cow_majors() %>%
  # Add democracy variables
  add_democracy() %>%
  # Add IGOs data
  add_igos() %>%
  # Add National Material Capabilities
  add_nmc() %>%
  # add alliance data from Correlates of War
  add_cow_alliance() %>%
  # you should probably filter to politically relevant dyads earlier than later...
  # Or not, it's your time and computer processor...
  filter_prd()
```

    ## # A tibble: 2,025,840 x 71
    ##    ccode1 ccode2  year gwcode1 gwcode2 dispnum midongoing midonset sidea1 sidea2
    ##     <dbl>  <dbl> <dbl>   <dbl>   <dbl>   <dbl>      <dbl>    <dbl>  <dbl>  <dbl>
    ##  1      2     20  1920       2      20      NA          0        0     NA     NA
    ##  2      2     20  1921       2      20      NA          0        0     NA     NA
    ##  3      2     20  1922       2      20      NA          0        0     NA     NA
    ##  4      2     20  1923       2      20      NA          0        0     NA     NA
    ##  5      2     20  1924       2      20      NA          0        0     NA     NA
    ##  6      2     20  1925       2      20      NA          0        0     NA     NA
    ##  7      2     20  1926       2      20      NA          0        0     NA     NA
    ##  8      2     20  1927       2      20      NA          0        0     NA     NA
    ##  9      2     20  1928       2      20      NA          0        0     NA     NA
    ## 10      2     20  1929       2      20      NA          0        0     NA     NA
    ## # … with 2,025,830 more rows, and 61 more variables: revstate1 <dbl>,
    ## #   revstate2 <dbl>, revtype11 <dbl>, revtype12 <dbl>, revtype21 <dbl>,
    ## #   revtype22 <dbl>, fatality1 <dbl>, fatality2 <dbl>, fatalpre1 <dbl>,
    ## #   fatalpre2 <dbl>, hiact1 <dbl>, hiact2 <dbl>, hostlev1 <dbl>,
    ## #   hostlev2 <dbl>, orig1 <dbl>, orig2 <dbl>, hiact <dbl>, hostlev <dbl>,
    ## #   mindur <dbl>, maxdur <dbl>, outcome <dbl>, settle <dbl>, fatality <dbl>,
    ## #   fatalpre <dbl>, stmon <dbl>, endmon <dbl>, recip <dbl>, numa <dbl>,
    ## #   numb <dbl>, ongo2010 <dbl>, version <chr>, capdist <dbl>, conttype <dbl>,
    ## #   cowmaj1 <dbl>, cowmaj2 <dbl>, v2x_polyarchy1 <dbl>, polity21 <dbl>,
…
``` r
# state-years now...

tic()
create_stateyears() %>%
  add_gwcode_to_cow() %>%
  add_capital_distance() %>%
  add_contiguity() %>%
  add_cow_majors() %>%
  add_democracy() %>%
  add_igos() %>%
  add_nmc()
```

    ## # A tibble: 16,536 x 22
    ##    ccode statenme  year gwcode mincapdist  land   sea cowmaj v2x_polyarchy
    ##    <dbl> <chr>    <dbl>  <dbl>      <dbl> <dbl> <dbl>  <dbl>         <dbl>
    ##  1     2 United …  1816      2      5742.     0     0      0         0.367
    ##  2     2 United …  1817      2      5742.     0     0      0         0.37 
    ##  3     2 United …  1818      2      5742.     0     0      0         0.365
    ##  4     2 United …  1819      2      5742.     0     0      0         0.362
    ##  5     2 United …  1820      2      5742.     0     0      0         0.349
    ##  6     2 United …  1821      2      5742.     0     0      0         0.336
    ##  7     2 United …  1822      2      5744.     0     0      0         0.341
    ##  8     2 United …  1823      2      5744.     0     0      0         0.345
    ##  9     2 United …  1824      2      5744.     0     0      0         0.345
    ## 10     2 United …  1825      2      5744.     0     0      0         0.341
    ## # … with 16,526 more rows, and 13 more variables: polity2 <dbl>,
    ## #   xm_qudsest <dbl>, sum_igo_full <dbl>, sum_igo_associate <dbl>,
    ## #   sum_igo_observer <dbl>, sum_igo_anytype <dbl>, milex <dbl>, milper <dbl>,
    ## #   irst <dbl>, pec <dbl>, tpop <dbl>, upop <dbl>, cinc <dbl>
…
