…
✔ readr   1.4.0     ✔ forcats 0.5.1
── Conflicts ────────────────────────────────────────── tidyverse_conflicts() ──
✖ dplyr::filter() masks stats::filter()
✖ dplyr::lag()    masks stats::lag()
> library(peacesciencer)
Registered S3 method overwritten by 'broom.mixed':
  method      from 
  tidy.gamlss broom
> library(microbenchmark)
> 
> # https://stackoverflow.com/questions/10893611/storing-tic-toc-values-in-r
> # Create some data ----
> 
> cow_ddy
# A tibble: 2,063,670 x 3
   ccode1 ccode2  year
    <dbl>  <dbl> <int>
 1      2     20  1920
 2      2     20  1921
 3      2     20  1922
 4      2     20  1923
 5      2     20  1924
 6      2     20  1925
 7      2     20  1926
 8      2     20  1927
 9      2     20  1928
10      2     20  1929
# … with 2,063,660 more rows
…
