Various Tools and Data for Quantitative Peace Science • peacesciencer
…
  # add alliance data from Correlates of War
  add_cow_alliance() %>%
  # add alliance data from ATOP
  add_atop_alliance() %>%
  # add minimum distance. No default, must specify "cow" or "gw"
  add_minimum_distance(system = "cow") %>%
  # add Archigos data
  add_archigos() %>%
  # add gross and surplus GDP data
  add_sdp_gdp(system = "cow") %>%
  # you should probably filter to politically relevant dyads earlier than later...
  # Or not, it's your time and computer processor...
  filter_prd()

## # A tibble: 246,314 x 97
##    ccode1 ccode2  year gwcode1 gwcode2 dispnum midongoing midonset sidea1 sidea2
##     <dbl>  <dbl> <dbl>   <dbl>   <dbl>   <dbl>      <dbl>    <dbl>  <dbl>  <dbl>
##  1      2     20  1920       2      20      NA          0        0     NA     NA
##  2      2     20  1921       2      20      NA          0        0     NA     NA
##  3      2     20  1922       2      20      NA          0        0     NA     NA
##  4      2     20  1923       2      20      NA          0        0     NA     NA
##  5      2     20  1924       2      20      NA          0        0     NA     NA
##  6      2     20  1925       2      20      NA          0        0     NA     NA
##  7      2     20  1926       2      20      NA          0        0     NA     NA
##  8      2     20  1927       2      20      NA          0        0     NA     NA
##  9      2     20  1928       2      20      NA          0        0     NA     NA
## 10      2     20  1929       2      20      NA          0        0     NA     NA
## # … with 246,304 more rows, and 87 more variables: revstate1 <dbl>,
## #   revstate2 <dbl>, revtype11 <dbl>, revtype12 <dbl>, revtype21 <dbl>,
## #   revtype22 <dbl>, fatality1 <dbl>, fatality2 <dbl>, fatalpre1 <dbl>,
## #   fatalpre2 <dbl>, hiact1 <dbl>, hiact2 <dbl>, hostlev1 <dbl>,
## #   hostlev2 <dbl>, orig1 <dbl>, orig2 <dbl>, hiact <dbl>, hostlev <dbl>,
## #   mindur <dbl>, maxdur <dbl>, outcome <dbl>, settle <dbl>, fatality <dbl>,
## #   fatalpre <dbl>, stmon <dbl>, endmon <dbl>, recip <dbl>, numa <dbl>,
## #   numb <dbl>, ongo2010 <dbl>, version <chr>, flow2 <dbl>, flow1 <dbl>,
## #   smoothflow2 <dbl>, smoothflow1 <dbl>, capdist <dbl>, conttype <dbl>,
…
create_stateyears() %>%
  add_gwcode_to_cow() %>%
  add_ucdp_onsets() %>%
  add_capital_distance() %>%
  add_contiguity() %>%
  add_cow_majors() %>%
  add_cow_trade() %>%
  add_democracy() %>%
  add_igos() %>%
  add_minimum_distance(system = "cow") %>%
  add_archigos() %>%
  add_nmc() %>%
  add_sdp_gdp(system = "cow") 

## # A tibble: 16,731 x 39
##    ccode statenme  year gwcode sumnewconf sumonset1 sumonset2 sumonset3
##    <dbl> <chr>    <dbl>  <dbl>      <dbl>     <dbl>     <dbl>     <dbl>
##  1     2 United …  1816      2          0         0         0         0
##  2     2 United …  1817      2          0         0         0         0
##  3     2 United …  1818      2          0         0         0         0
##  4     2 United …  1819      2          0         0         0         0
##  5     2 United …  1820      2          0         0         0         0
##  6     2 United …  1821      2          0         0         0         0
##  7     2 United …  1822      2          0         0         0         0
##  8     2 United …  1823      2          0         0         0         0
##  9     2 United …  1824      2          0         0         0         0
## 10     2 United …  1825      2          0         0         0         0
## # … with 16,721 more rows, and 31 more variables: sumonset5 <dbl>,
## #   sumonset10 <dbl>, mincapdist <dbl>, land <dbl>, sea <dbl>, cowmaj <dbl>,
## #   imports <dbl>, exports <dbl>, v2x_polyarchy <dbl>, polity2 <dbl>,
## #   xm_qudsest <dbl>, sum_igo_full <dbl>, sum_igo_associate <dbl>,
## #   sum_igo_observer <dbl>, sum_igo_anytype <dbl>, minmindist <dbl>,
## #   leadertransition <dbl>, irregular <dbl>, n_leaders <int>, jan1leadid <chr>,
## #   dec31leadid <chr>, milex <dbl>, milper <dbl>, irst <dbl>, pec <dbl>,
## #   tpop <dbl>, upop <dbl>, cinc <dbl>, wbgdp2011est <dbl>, wbpopest <dbl>,
## #   sdpest <dbl>
…
