How `{peacesciencer}` Coerces Dispute-Year Data into Dyad-Year Data • peacesciencer
…
Converting CoW-MID Dyadic Dispute-Year Data into Dyad-Year Data

First, let’s identify where there are dyad-year duplicates in the data.

cow_mid_dirdisps %>%
  # make it non-directed for ease of presentation
  filter(ccode2 > ccode1) %>%
  group_by(ccode1, ccode2, year) %>%
  summarize(n = n(),
            mids = paste0(dispnum, collapse = ", ")) %>% 
  arrange(-n) %>%
  filter(n > 1) %>%
  ungroup() 
#> `summarise()` has grouped output by 'ccode1', 'ccode2'. You can override using the `.groups` argument.
#> # A tibble: 498 × 5
#>    ccode1 ccode2  year     n mids                            
#>     <dbl>  <dbl> <dbl> <int> <chr>                           
#>  1    200    365  1920     6 186, 197, 1133, 2363, 2364, 2604
#>  2      2    365  1958     5 125, 173, 608, 2215, 2216       
#>  3    651    666  1959     5 3375, 3405, 3419, 3421, 3430    
#>  4    651    666  1960     5 3375, 3405, 3419, 3422, 3430    
#>  5    652    666  1955     5 3404, 3405, 3416, 3417, 3418    
#>  6      2    365  1962     4 61, 1353, 2219, 3361            
#>  7      2    365  1967     4 345, 2930, 2931, 2934           
#>  8    200    365  1919     4 197, 2363, 2604, 2605           
#>  9    651    666  1958     4 3375, 3405, 3419, 3420          
#> 10    652    666  1954     4 3403, 3404, 3415, 3417          
#> # … with 488 more rows
…
