Create Different Kinds of Data in `{peacesciencer}` • peacesciencer
…
State-Year Data

The most basic form of data peacesciencer creates is state-year, by way of create_stateyears(). create_stateyears() has two arguments: system and mry. system takes either “cow” or “gw”, depending on whether the user wants Correlates of War state years or Gleditsch-Ward state-years. It defaults to “cow” in the absence of a user-specified override given the prominence of Correlates of War data in the peace science ecosystem. mry takes a logical (TRUE or FALSE), depending on whether the user wants the function to extend to the most recently concluded calendar year (2020). The Correlates of War state system data extend to the end of 2016 while the Gleditsch-Ward state system extend to the end of the 2017. This argument will allow the researcher to extend the data a few years, under the (reasonable) assumption there have been no fundamental composition to the state system since these data sets were last updated. mry defaults to TRUE in the absence of a user-specified override.

This will create Correlates of War state-year data from 1816 to 2020.

create_stateyears()
#> # A tibble: 16,731 × 3
#>    ccode statenme                  year
#>    <dbl> <chr>                    <int>
#>  1     2 United States of America  1816
#>  2     2 United States of America  1817
#>  3     2 United States of America  1818
#>  4     2 United States of America  1819
#>  5     2 United States of America  1820
#>  6     2 United States of America  1821
#>  7     2 United States of America  1822
#>  8     2 United States of America  1823
#>  9     2 United States of America  1824
#> 10     2 United States of America  1825
#> # … with 16,721 more rows

This will create Gleditsch-Ward state-year data from 1816 to 2017.

create_stateyears(system = "gw", mry = FALSE)
#> # A tibble: 17,767 × 3
#>    gwcode statename                 year
#>     <dbl> <chr>                    <int>
#>  1      2 United States of America  1816
#>  2      2 United States of America  1817
#>  3      2 United States of America  1818
#>  4      2 United States of America  1819
#>  5      2 United States of America  1820
#>  6      2 United States of America  1821
#>  7      2 United States of America  1822
#>  8      2 United States of America  1823
#>  9      2 United States of America  1824
#> 10      2 United States of America  1825
#> # … with 17,757 more rows

Dyad-Year Data

create_dyadyears() is one of the most useful functions in peacesciencer, transforming the raw Correlates of War state system data (cow_states in peacesciencer) or Gleditsch-Ward state system data (gw_states) into all possible dyad-years. It has three arguments. system and mry operate the same as they do in create_stateyears(). There is an additional argument—directed—that also takes a logical (TRUE or FALSE). The default here is TRUE, returning directed dyad-year data (useful for dyadic conflict analyses where the initiator/target distinction matters). FALSE returns non-directed dyad-year data, useful for cases where the initiator/target distinction does not matter and the researcher cares more about the presence or absence of a conflict. The convention for non-directed dyad-year data is that ccode2 > ccode1 and the underlying code of create_dyadyears() simply takes the directed dyad-year data and lops it in half with that rule.

Here are all Correlates of War dyad-years from 1816 to 2020.

create_dyadyears()
#> # A tibble: 2,063,670 × 3
#>    ccode1 ccode2  year
#>     <dbl>  <dbl> <int>
#>  1      2     20  1920
#>  2      2     20  1921
#>  3      2     20  1922
#>  4      2     20  1923
#>  5      2     20  1924
#>  6      2     20  1925
#>  7      2     20  1926
#>  8      2     20  1927
#>  9      2     20  1928
#> 10      2     20  1929
#> # … with 2,063,660 more rows

Here are all Gleditsch-Ward dyad-years with the same temporal domain.

create_dyadyears(system = "gw")
#> # A tibble: 2,029,660 × 3
#>    gwcode1 gwcode2  year
#>      <dbl>   <dbl> <int>
#>  1       2      20  1867
#>  2       2      20  1868
#>  3       2      20  1869
#>  4       2      20  1870
#>  5       2      20  1871
#>  6       2      20  1872
#>  7       2      20  1873
#>  8       2      20  1874
#>  9       2      20  1875
#> 10       2      20  1876
#> # … with 2,029,650 more rows

Dyadic Dispute-Year Data

Dyadic dispute-year data come pre-processed in peacesciencer. Another vignette show how these are transformed to true dyad-year data, but they are also available for analysis. For example, the (directed) dyadic dispute-year Gibler-Miller-Little (GML) MID data are available as gml_dirdisp. Here, we can add information to these dyadic dispute-years to identify contiguity relationships and Correlates of War major status.

gml_dirdisp %>% add_contiguity() %>% add_cow_majors()
#> Joining, by = c("ccode1", "ccode2", "year")
#> # A tibble: 10,276 × 42
#>    dispnum ccode1 ccode2  year midongoing midonset sidea1 sidea2 revstate1
#>      <dbl>  <dbl>  <dbl> <dbl>      <dbl>    <dbl>  <dbl>  <dbl>     <dbl>
#>  1       2      2    200  1902          1        1      1      0         1
#>  2       2    200      2  1902          1        1      0      1         1
#>  3       3    300    345  1913          1        1      1      0         1
#>  4       3    345    300  1913          1        1      0      1         0
#>  5       4    200    339  1946          1        1      0      1         0
#>  6       4    339    200  1946          1        1      1      0         0
#>  7       7    200    651  1951          1        1      1      0         0
#>  8       7    200    651  1952          1        0      1      0         0
#>  9       7    651    200  1951          1        1      0      1         1
#> 10       7    651    200  1952          1        0      0      1         1
#> # … with 10,266 more rows, and 33 more variables: revstate2 <dbl>,
#> #   revtype11 <dbl>, revtype12 <dbl>, revtype21 <dbl>, revtype22 <dbl>,
#> #   fatality1 <dbl>, fatality2 <dbl>, fatalpre1 <dbl>, fatalpre2 <dbl>,
#> #   hiact1 <dbl>, hiact2 <dbl>, hostlev1 <dbl>, hostlev2 <dbl>, orig1 <dbl>,
#> #   orig2 <dbl>, hiact <dbl>, hostlev <dbl>, mindur <dbl>, maxdur <dbl>,
#> #   outcome <dbl>, settle <dbl>, fatality <dbl>, fatalpre <dbl>, stmon <dbl>,
#> #   endmon <dbl>, recip <dbl>, numa <dbl>, numb <dbl>, ongo2010 <dbl>, …

Users interested in the Correlates of War MID data will have this available for use as cow_mid_dirdisps. Future updates may change the object names for better standardization, but this is how it is now.

State-Day Data

peacesciencer comes with a create_statedays() function. This is admittedly more proof of concept as it is really difficult to conjure too many daily data sets in peace science, certainly with coverage into the 19th century. No matter, create_statedays() will create these data. It too has the same system and mry arguments (and same defaults) as create_stateyears().

Here are all Correlates of War state-days from 1816 to 2020.

create_statedays()
#> # A tibble: 6,061,091 × 3
#>    ccode statenme                 date      
#>    <dbl> <chr>                    <date>    
#>  1     2 United States of America 1816-01-01
#>  2     2 United States of America 1816-01-02
#>  3     2 United States of America 1816-01-03
#>  4     2 United States of America 1816-01-04
#>  5     2 United States of America 1816-01-05
#>  6     2 United States of America 1816-01-06
#>  7     2 United States of America 1816-01-07
#>  8     2 United States of America 1816-01-08
#>  9     2 United States of America 1816-01-09
#> 10     2 United States of America 1816-01-10
#> # … with 6,061,081 more rows

Here are all Gleditsch-Ward state-days with the same temporal domain.

create_statedays(system = "gw")
#> # A tibble: 6,638,781 × 3
#>    gwcode statename                date      
#>     <dbl> <chr>                    <date>    
#>  1      2 United States of America 1816-01-01
#>  2      2 United States of America 1816-01-02
#>  3      2 United States of America 1816-01-03
#>  4      2 United States of America 1816-01-04
#>  5      2 United States of America 1816-01-05
#>  6      2 United States of America 1816-01-06
#>  7      2 United States of America 1816-01-07
#>  8      2 United States of America 1816-01-08
#>  9      2 United States of America 1816-01-09
#> 10      2 United States of America 1816-01-10
#> # … with 6,638,771 more rows

I can conjure an application where a user may want to think of daily conflict episodes within the Gleditsch-Ward domain. The UCDP armed conflict data have more precise dates than, say, the Correlates of War MID data, making such an analysis possible. However, there are no conflict data before 1946 and you should reflect that with peacesciencer with something like this. This will require lubridate.

create_statedays(system = "gw") %>%
  filter(year(date) >= 1946)
#> # A tibble: 3,870,980 × 3
#>    gwcode statename                date      
#>     <dbl> <chr>                    <date>    
#>  1      2 United States of America 1946-01-01
#>  2      2 United States of America 1946-01-02
#>  3      2 United States of America 1946-01-03
#>  4      2 United States of America 1946-01-04
#>  5      2 United States of America 1946-01-05
#>  6      2 United States of America 1946-01-06
#>  7      2 United States of America 1946-01-07
#>  8      2 United States of America 1946-01-08
#>  9      2 United States of America 1946-01-09
#> 10      2 United States of America 1946-01-10
#> # … with 3,870,970 more rows

State-Month Data

State-months are simple aggregations of state-days. You can accomplish this with a few more extra commands after create_statedays().

create_statedays(system = "gw") %>%
  mutate(year = year(date),
         month = month(date)) %>%
  distinct(gwcode, statename, year, month)
#> # A tibble: 218,194 × 4
#>    gwcode statename                 year month
#>     <dbl> <chr>                    <dbl> <dbl>
#>  1      2 United States of America  1816     1
#>  2      2 United States of America  1816     2
#>  3      2 United States of America  1816     3
#>  4      2 United States of America  1816     4
#>  5      2 United States of America  1816     5
#>  6      2 United States of America  1816     6
#>  7      2 United States of America  1816     7
#>  8      2 United States of America  1816     8
#>  9      2 United States of America  1816     9
#> 10      2 United States of America  1816    10
#> # … with 218,184 more rows
…
There is some assumption about what a “quarter” would look like in a more general context, but it might look something like this. Again, this is an aggregation of create_statedays().

create_statedays(system = "gw") %>%
  mutate(year = year(date),
         month = month(date)) %>%
  filter(month %in% c(1, 4, 7, 10)) %>%
  mutate(quarter = case_when(
    month == 1 ~ "Q1",
    month == 4 ~ "Q2",
    month == 7 ~ "Q3",
    month == 10 ~ "Q4"
  )) %>%
  distinct(gwcode, statename, year, quarter)
#> # A tibble: 72,687 × 4
#>    gwcode statename                 year quarter
#>     <dbl> <chr>                    <dbl> <chr>  
#>  1      2 United States of America  1816 Q1     
#>  2      2 United States of America  1816 Q2     
#>  3      2 United States of America  1816 Q3     
#>  4      2 United States of America  1816 Q4     
#>  5      2 United States of America  1817 Q1     
#>  6      2 United States of America  1817 Q2     
#>  7      2 United States of America  1817 Q3     
#>  8      2 United States of America  1817 Q4     
#>  9      2 United States of America  1818 Q1     
#> 10      2 United States of America  1818 Q2     
#> # … with 72,677 more rows

Leader-Day (Leader-Month, Leader-Year) Data

peacesciencer does not have leader-level units of analysis, but these can be easily created with the modified Archigos (archigos) data in peacesciencer. The data are version 4.1.

archigos
#> # A tibble: 3,409 × 9
#>    ccode leadid     leader  gender startdate  enddate    entry exit  exitcode   
#>    <dbl> <chr>      <chr>   <chr>  <date>     <date>     <chr> <chr> <chr>      
#>  1     2 81dcc176-… Grant   M      1869-03-04 1877-03-04 Regu… Regu… Regular    
#>  2     2 81dcc177-… Hayes   M      1877-03-04 1881-03-04 Regu… Regu… Regular    
#>  3     2 81dcf24a-… Garfie… M      1881-03-04 1881-09-19 Regu… Irre… Assassinat…
#>  4     2 81dcf24b-… Arthur  M      1881-09-19 1885-03-04 Regu… Regu… Regular    
#>  5     2 34fb1558-… Clevel… M      1885-03-04 1889-03-04 Regu… Regu… Regular    
#>  6     2 81dcf24d-… Harris… M      1889-03-04 1893-03-04 Regu… Regu… Regular    
#>  7     2 34fb1558-… Clevel… M      1893-03-04 1897-03-04 Regu… Regu… Regular    
#>  8     2 81dcf24e-… McKinl… M      1897-03-04 1901-09-14 Regu… Irre… Assassinat…
#>  9     2 81dd231e-… Roosev… M      1901-09-14 1909-03-04 Regu… Regu… Regular    
#> 10     2 81dd231f-… Taft    M      1909-03-04 1913-03-04 Regu… Regu… Regular    
#> # … with 3,399 more rows

If you want leader-days, here is the simplest path toward it. May this also give an idea of what functions like create_statedays() and create_stateyears() are doing underneath the proverbial hood.

archigos %>%
  rowwise() %>%
  mutate(date = list(seq(startdate, enddate, by="1 day"))) %>%
  unnest(date) %>%
  select(ccode, leadid, date, everything())
#> # A tibble: 5,298,380 × 10
#>    ccode leadid       date       leader gender startdate  enddate    entry exit 
#>    <dbl> <chr>        <date>     <chr>  <chr>  <date>     <date>     <chr> <chr>
#>  1     2 81dcc176-1e… 1869-03-04 Grant  M      1869-03-04 1877-03-04 Regu… Regu…
#>  2     2 81dcc176-1e… 1869-03-05 Grant  M      1869-03-04 1877-03-04 Regu… Regu…
#>  3     2 81dcc176-1e… 1869-03-06 Grant  M      1869-03-04 1877-03-04 Regu… Regu…
#>  4     2 81dcc176-1e… 1869-03-07 Grant  M      1869-03-04 1877-03-04 Regu… Regu…
#>  5     2 81dcc176-1e… 1869-03-08 Grant  M      1869-03-04 1877-03-04 Regu… Regu…
#>  6     2 81dcc176-1e… 1869-03-09 Grant  M      1869-03-04 1877-03-04 Regu… Regu…
#>  7     2 81dcc176-1e… 1869-03-10 Grant  M      1869-03-04 1877-03-04 Regu… Regu…
#>  8     2 81dcc176-1e… 1869-03-11 Grant  M      1869-03-04 1877-03-04 Regu… Regu…
#>  9     2 81dcc176-1e… 1869-03-12 Grant  M      1869-03-04 1877-03-04 Regu… Regu…
#> 10     2 81dcc176-1e… 1869-03-13 Grant  M      1869-03-04 1877-03-04 Regu… Regu…
#> # … with 5,298,370 more rows, and 1 more variable: exitcode <chr>

The user may want to think about some additional post-processing on top of this, but this is enough to get started. From there, the same process that creates state-months can also create leader-years or leader-months. Here are leader-months.

archigos %>%
  rowwise() %>%
  mutate(date = list(seq(startdate, enddate, by="1 day"))) %>%
  unnest(date) %>%
  select(ccode, leadid, date, everything()) %>%
  mutate(year = year(date),
         month = month(date)) %>%
  group_by(ccode, leadid, year, month) %>%
  slice(1)
#> # A tibble: 177,122 × 12
#> # Groups:   ccode, leadid, year, month [177,122]
#>    ccode leadid      date       leader  gender startdate  enddate    entry exit 
#>    <dbl> <chr>       <date>     <chr>   <chr>  <date>     <date>     <chr> <chr>
#>  1     2 34fb1558-3… 1885-03-04 Clevel… M      1885-03-04 1889-03-04 Regu… Regu…
#>  2     2 34fb1558-3… 1885-04-01 Clevel… M      1885-03-04 1889-03-04 Regu… Regu…
#>  3     2 34fb1558-3… 1885-05-01 Clevel… M      1885-03-04 1889-03-04 Regu… Regu…
#>  4     2 34fb1558-3… 1885-06-01 Clevel… M      1885-03-04 1889-03-04 Regu… Regu…
#>  5     2 34fb1558-3… 1885-07-01 Clevel… M      1885-03-04 1889-03-04 Regu… Regu…
#>  6     2 34fb1558-3… 1885-08-01 Clevel… M      1885-03-04 1889-03-04 Regu… Regu…
#>  7     2 34fb1558-3… 1885-09-01 Clevel… M      1885-03-04 1889-03-04 Regu… Regu…
#>  8     2 34fb1558-3… 1885-10-01 Clevel… M      1885-03-04 1889-03-04 Regu… Regu…
#>  9     2 34fb1558-3… 1885-11-01 Clevel… M      1885-03-04 1889-03-04 Regu… Regu…
#> 10     2 34fb1558-3… 1885-12-01 Clevel… M      1885-03-04 1889-03-04 Regu… Regu…
#> # … with 177,112 more rows, and 3 more variables: exitcode <chr>, year <dbl>,
#> #   month <dbl>

And here are leader-years.

archigos %>%
  rowwise() %>%
  mutate(date = list(seq(startdate, enddate, by="1 day"))) %>%
  unnest(date) %>%
  select(ccode, leadid, date, everything()) %>%
  mutate(year = year(date)) %>%
  group_by(ccode, leadid, year) %>%
  slice(1)
#> # A tibble: 17,608 × 11
#> # Groups:   ccode, leadid, year [17,608]
#>    ccode leadid      date       leader  gender startdate  enddate    entry exit 
#>    <dbl> <chr>       <date>     <chr>   <chr>  <date>     <date>     <chr> <chr>
#>  1     2 34fb1558-3… 1885-03-04 Clevel… M      1885-03-04 1889-03-04 Regu… Regu…
#>  2     2 34fb1558-3… 1886-01-01 Clevel… M      1885-03-04 1889-03-04 Regu… Regu…
#>  3     2 34fb1558-3… 1887-01-01 Clevel… M      1885-03-04 1889-03-04 Regu… Regu…
#>  4     2 34fb1558-3… 1888-01-01 Clevel… M      1885-03-04 1889-03-04 Regu… Regu…
#>  5     2 34fb1558-3… 1889-01-01 Clevel… M      1885-03-04 1889-03-04 Regu… Regu…
#>  6     2 34fb1558-3… 1893-03-04 Clevel… M      1893-03-04 1897-03-04 Regu… Regu…
#>  7     2 34fb1558-3… 1894-01-01 Clevel… M      1893-03-04 1897-03-04 Regu… Regu…
#>  8     2 34fb1558-3… 1895-01-01 Clevel… M      1893-03-04 1897-03-04 Regu… Regu…
#>  9     2 34fb1558-3… 1896-01-01 Clevel… M      1893-03-04 1897-03-04 Regu… Regu…
#> 10     2 34fb1558-3… 1897-01-01 Clevel… M      1893-03-04 1897-03-04 Regu… Regu…
#> # … with 17,598 more rows, and 2 more variables: exitcode <chr>, year <dbl>
…
