Fixing Unnecessary Missingness in Democracy Scores in `{peacesciencer}` • peacesciencer
…
#library(tidyverse)
#library(peacesciencer)
#library(isard)

cw_democracy
#> # A tibble: 17,511 × 6
#>    ccode  year  euds    aeuds polity2 v2x_polyarchy
#>    <dbl> <dbl> <dbl>    <dbl>   <dbl>         <dbl>
#>  1     2  1816 0.803 -0.00435       6         0.359
#>  2     2  1817 0.803 -0.00435       6         0.357
#>  3     2  1818 0.803 -0.00435       6         0.359
#>  4     2  1819 0.803 -0.00435       6         0.359
#>  5     2  1820 0.803 -0.00435       6         0.354
#>  6     2  1821 0.803 -0.00435       6         0.349
#>  7     2  1822 0.803 -0.00435       6         0.349
#>  8     2  1823 0.803 -0.00435       6         0.348
#>  9     2  1824 0.803 -0.00435       6         0.348
#> 10     2  1825 0.811  0.00331       7         0.348
#> # ℹ 17,501 more rows
…
cw_democracy %>%
  filter(between(year, 1816, 2010)) %>%
  filter(is.na(euds)) -> missing_euds

missing_euds
#> # A tibble: 53 × 6
#>    ccode  year  euds aeuds polity2 v2x_polyarchy
#>    <dbl> <dbl> <dbl> <dbl>   <dbl>         <dbl>
#>  1   300  1867    NA    NA      NA         0.188
#>  2   300  1868    NA    NA      NA         0.192
#>  3   300  1869    NA    NA      NA         0.192
#>  4   300  1870    NA    NA      NA         0.205
#>  5   300  1871    NA    NA      NA         0.201
#>  6   300  1872    NA    NA      NA         0.201
#>  7   300  1873    NA    NA      NA         0.214
#>  8   300  1874    NA    NA      NA         0.214
#>  9   300  1875    NA    NA      NA         0.211
#> 10   300  1876    NA    NA      NA         0.211
#> # ℹ 43 more rows
…
vdem_intercept <- broom::tidy(M2)[1, 2] %>% pull()
vdem_coef <- broom::tidy(M2)[2, 2] %>% pull()

cw_democracy %>%
  mutate(impute_pol = pol_intercept + polity2*pol_coef,
         impute_vdem = vdem_intercept + v2x_polyarchy*vdem_coef) %>%
  mutate(imputed = case_when(
    is.na(euds) & !is.na(polity2) ~ impute_pol,
    is.na(euds) & !is.na(v2x_polyarchy) ~ impute_vdem,
    TRUE ~ euds
  )) %>% select(-euds) %>%
  left_join(missing_euds, .)
#> Joining with `by = join_by(ccode, year, aeuds, polity2, v2x_polyarchy)`
#> # A tibble: 53 × 9
#>    ccode  year  euds aeuds polity2 v2x_polyarchy impute_pol impute_vdem  imputed
#>    <dbl> <dbl> <dbl> <dbl>   <dbl>         <dbl>      <dbl>       <dbl>    <dbl>
#>  1   300  1867    NA    NA      NA         0.188         NA   -0.0511   -5.11e-2
#>  2   300  1868    NA    NA      NA         0.192         NA   -0.0389   -3.89e-2
#>  3   300  1869    NA    NA      NA         0.192         NA   -0.0389   -3.89e-2
#>  4   300  1870    NA    NA      NA         0.205         NA    0.000648  6.48e-4
#>  5   300  1871    NA    NA      NA         0.201         NA   -0.0115   -1.15e-2
#>  6   300  1872    NA    NA      NA         0.201         NA   -0.0115   -1.15e-2
#>  7   300  1873    NA    NA      NA         0.214         NA    0.0280    2.80e-2
#>  8   300  1874    NA    NA      NA         0.214         NA    0.0280    2.80e-2
#>  9   300  1875    NA    NA      NA         0.211         NA    0.0189    1.89e-2
#> 10   300  1876    NA    NA      NA         0.211         NA    0.0189    1.89e-2
#> # ℹ 43 more rows
…
