Create Different Kinds of Data in `{peacesciencer}` • peacesciencer
…
This will create Correlates of War state-year data from 1816 to
2022.

create_stateyears()
#> # A tibble: 17,121 × 3
#>    ccode statenme                  year
#>    <dbl> <chr>                    <int>
#>  1     2 United States of America  1816
#>  2     2 United States of America  1817
#>  3     2 United States of America  1818
#>  4     2 United States of America  1819
#>  5     2 United States of America  1820
#>  6     2 United States of America  1821
#>  7     2 United States of America  1822
#>  8     2 United States of America  1823
#>  9     2 United States of America  1824
#> 10     2 United States of America  1825
#> # … with 17,111 more rows

This will create Gleditsch-Ward state-year data from 1816 to
2017.

create_stateyears(system = "gw", mry = FALSE)
#> # A tibble: 17,767 × 3
#>    gwcode statename                 year
#>     <dbl> <chr>                    <int>
#>  1      2 United States of America  1816
#>  2      2 United States of America  1817
#>  3      2 United States of America  1818
#>  4      2 United States of America  1819
#>  5      2 United States of America  1820
#>  6      2 United States of America  1821
#>  7      2 United States of America  1822
#>  8      2 United States of America  1823
#>  9      2 United States of America  1824
#> 10      2 United States of America  1825
#> # … with 17,757 more rows
…
Here are all Correlates of War dyad-years from 1816 to 2022.

create_dyadyears()
#> Joining with `by = join_by(ccode1, ccode2, year)`
#> # A tibble: 2,139,270 × 3
#>    ccode1 ccode2  year
#>     <dbl>  <dbl> <int>
#>  1      2     20  1920
#>  2      2     20  1921
#>  3      2     20  1922
#>  4      2     20  1923
#>  5      2     20  1924
#>  6      2     20  1925
#>  7      2     20  1926
#>  8      2     20  1927
#>  9      2     20  1928
#> 10      2     20  1929
#> # … with 2,139,260 more rows

Here are all Gleditsch-Ward dyad-years with the same temporal
domain.

create_dyadyears(system = "gw")
#> Joining with `by = join_by(gwcode1, gwcode2, year)`
#> # A tibble: 2,089,826 × 3
#>    gwcode1 gwcode2  year
#>      <dbl>   <dbl> <int>
#>  1       2      20  1867
#>  2       2      20  1868
#>  3       2      20  1869
#>  4       2      20  1870
#>  5       2      20  1871
#>  6       2      20  1872
#>  7       2      20  1873
#>  8       2      20  1874
#>  9       2      20  1875
#> 10       2      20  1876
#> # … with 2,089,816 more rows
Major vs. Major Dyad-Years

Consider this section of the vignette as a comparison to the kind of
dyad-year data that EUGene would create for a user, apparently on
request. EUGene would apparently create these types of dyad-years as
specific dyad-year types whereas peacesciencer treats
them as case exclusions you can do after the fact given other
functionality in the package. For example, here are just major vs. major
dyads. For simplicity’s sake, these will all be directed dyad-years at
their core (and captured with cow_ddy in the package as a
shortcut).

cow_ddy %>% add_cow_majors() %>%
  filter(cowmaj1 == 1 & cowmaj2 == 1)
#> # A tibble: 6,140 × 5
#>    ccode1 ccode2  year cowmaj1 cowmaj2
#>     <dbl>  <dbl> <int>   <dbl>   <dbl>
#>  1      2    200  1898       1       1
#>  2      2    200  1899       1       1
#>  3      2    200  1900       1       1
#>  4      2    200  1901       1       1
#>  5      2    200  1902       1       1
#>  6      2    200  1903       1       1
#>  7      2    200  1904       1       1
#>  8      2    200  1905       1       1
#>  9      2    200  1906       1       1
#> 10      2    200  1907       1       1
#> # … with 6,130 more rows

Major vs. Any State Dyad-Years

These are all dyad-years where any state is a major power.

cow_ddy %>% add_cow_majors() %>%
  filter(cowmaj1 == 1 | cowmaj2 == 1)
#> # A tibble: 183,722 × 5
#>    ccode1 ccode2  year cowmaj1 cowmaj2
#>     <dbl>  <dbl> <int>   <dbl>   <dbl>
#>  1      2     20  1920       1       0
#>  2      2     20  1921       1       0
#>  3      2     20  1922       1       0
#>  4      2     20  1923       1       0
#>  5      2     20  1924       1       0
#>  6      2     20  1925       1       0
#>  7      2     20  1926       1       0
#>  8      2     20  1927       1       0
#>  9      2     20  1928       1       0
#> 10      2     20  1929       1       0
#> # … with 183,712 more rows

All Contiguous Dyad-Years

These are all dyad-years separated by 400 miles of water or fewer,
though the documentation for add_contiguity() cautions that
users should be at least a little critical of the contiguity data.

cow_ddy %>% add_contiguity() %>%
  filter(conttype %in% c(1:5))
#> Joining with `by = join_by(ccode1, ccode2, year)`
#> # A tibble: 82,440 × 4
#>    ccode1 ccode2  year conttype
#>     <dbl>  <dbl> <int>    <dbl>
#>  1      2     20  1920        1
#>  2      2     20  1921        1
#>  3      2     20  1922        1
#>  4      2     20  1923        1
#>  5      2     20  1924        1
#>  6      2     20  1925        1
#>  7      2     20  1926        1
#>  8      2     20  1927        1
#>  9      2     20  1928        1
#> 10      2     20  1929        1
#> # … with 82,430 more rows

All Dyad-Years Within a Set Distance

These are all dyad-years with a minimum distance of some
user-specified threshold (in kilometers). This function will lean on
add_minimum_distance(), which does have the side effect of
truncating the left bound of the temporal domain to—as of right
now—1886. These are all Correlates of War dyad-years from 1886 to 2019
separated by 1,000 kilometers or fewer.

cow_ddy %>% add_minimum_distance() %>%
  filter(mindist <= 1000)
#> Joining with `by = join_by(ccode1, ccode2, year)`
#> # A tibble: 167,532 × 4
#>    ccode1 ccode2  year mindist
#>     <dbl>  <dbl> <dbl>   <dbl>
#>  1      2     20  1921       0
#>  2      2     20  1922       0
#>  3      2     20  1923       0
#>  4      2     20  1924       0
#>  5      2     20  1925       0
#>  6      2     20  1926       0
#>  7      2     20  1927       0
#>  8      2     20  1928       0
#>  9      2     20  1929       0
#> 10      2     20  1930       0
#> # … with 167,522 more rows

Dyadic Dispute-Year Data

Dyadic dispute-year data come pre-processed in
peacesciencer. Another
vignette show how these are transformed to true dyad-year data, but
they are also available for analysis. For example, the (directed) dyadic
dispute-year Gibler-Miller-Little (GML) MID data are available as
gml_dirdisp. Here, we can add information to these dyadic
dispute-years to identify contiguity relationships and Correlates of War
major status.

gml_dirdisp %>% add_contiguity() %>% add_cow_majors()
#> Joining with `by = join_by(ccode1, ccode2, year)`
#> # A tibble: 10,276 × 42
#>    dispnum ccode1 ccode2  year midongoing midonset sidea1 sidea2 revst…¹ revst…²
#>      <dbl>  <dbl>  <dbl> <dbl>      <dbl>    <dbl>  <dbl>  <dbl>   <dbl>   <dbl>
#>  1       2      2    200  1902          1        1      1      0       1       1
#>  2       2    200      2  1902          1        1      0      1       1       1
#>  3       3    300    345  1913          1        1      1      0       1       0
#>  4       3    345    300  1913          1        1      0      1       0       1
#>  5       4    200    339  1946          1        1      0      1       0       0
#>  6       4    339    200  1946          1        1      1      0       0       0
#>  7       7    200    651  1951          1        1      1      0       0       1
#>  8       7    200    651  1952          1        0      1      0       0       1
#>  9       7    651    200  1951          1        1      0      1       1       0
#> 10       7    651    200  1952          1        0      0      1       1       0
#> # … with 10,266 more rows, 32 more variables: revtype11 <dbl>, revtype12 <dbl>,
#> #   revtype21 <dbl>, revtype22 <dbl>, fatality1 <dbl>, fatality2 <dbl>,
#> #   fatalpre1 <dbl>, fatalpre2 <dbl>, hiact1 <dbl>, hiact2 <dbl>,
#> #   hostlev1 <dbl>, hostlev2 <dbl>, orig1 <dbl>, orig2 <dbl>, hiact <dbl>,
#> #   hostlev <dbl>, mindur <dbl>, maxdur <dbl>, outcome <dbl>, settle <dbl>,
#> #   fatality <dbl>, fatalpre <dbl>, stmon <dbl>, endmon <dbl>, recip <dbl>,
#> #   numa <dbl>, numb <dbl>, ongo2010 <dbl>, version <chr>, conttype <dbl>, …
…
State-Day Data

peacesciencer comes with a
create_statedays() function. This is admittedly more proof
of concept as it is really difficult to conjure too many
daily data sets in peace science, certainly with coverage into
the 19th century. No matter, create_statedays() will create
these data. It too has the same system and mry
arguments (and same defaults) as create_stateyears().

Here are all Correlates of War state-days from 1816 to 2022.

create_statedays()
#> # A tibble: 6,203,441 × 3
#>    ccode statenme                 date      
#>    <dbl> <chr>                    <date>    
#>  1     2 United States of America 1816-01-01
#>  2     2 United States of America 1816-01-02
#>  3     2 United States of America 1816-01-03
#>  4     2 United States of America 1816-01-04
#>  5     2 United States of America 1816-01-05
#>  6     2 United States of America 1816-01-06
#>  7     2 United States of America 1816-01-07
#>  8     2 United States of America 1816-01-08
#>  9     2 United States of America 1816-01-09
#> 10     2 United States of America 1816-01-10
#> # … with 6,203,431 more rows

Here are all Gleditsch-Ward state-days with the same temporal
domain.

create_statedays(system = "gw")
#> # A tibble: 6,765,801 × 3
#>    gwcode statename                date      
#>     <dbl> <chr>                    <date>    
#>  1      2 United States of America 1816-01-01
#>  2      2 United States of America 1816-01-02
#>  3      2 United States of America 1816-01-03
#>  4      2 United States of America 1816-01-04
#>  5      2 United States of America 1816-01-05
#>  6      2 United States of America 1816-01-06
#>  7      2 United States of America 1816-01-07
#>  8      2 United States of America 1816-01-08
#>  9      2 United States of America 1816-01-09
#> 10      2 United States of America 1816-01-10
#> # … with 6,765,791 more rows

I can conjure an application where a user may want to think of daily
conflict episodes within the Gleditsch-Ward domain. The UCDP armed
conflict data have more precise dates than, say, the Correlates of War
MID data, making such an analysis possible. However, there are no
conflict data before 1946 and you should reflect that with
peacesciencer with something like this. This will require
lubridate.

create_statedays(system = "gw") %>%
  filter(year(date) >= 1946)
#> # A tibble: 3,998,000 × 3
#>    gwcode statename                date      
#>     <dbl> <chr>                    <date>    
#>  1      2 United States of America 1946-01-01
#>  2      2 United States of America 1946-01-02
#>  3      2 United States of America 1946-01-03
#>  4      2 United States of America 1946-01-04
#>  5      2 United States of America 1946-01-05
#>  6      2 United States of America 1946-01-06
#>  7      2 United States of America 1946-01-07
#>  8      2 United States of America 1946-01-08
#>  9      2 United States of America 1946-01-09
#> 10      2 United States of America 1946-01-10
#> # … with 3,997,990 more rows

State-Month Data

State-months are simple aggregations of state-days. You can
accomplish this with a few more extra commands after
create_statedays().

create_statedays(system = "gw") %>%
  mutate(year = year(date),
         month = month(date)) %>%
  distinct(gwcode, statename, year, month)
#> # A tibble: 222,370 × 4
#>    gwcode statename                 year month
#>     <dbl> <chr>                    <dbl> <dbl>
#>  1      2 United States of America  1816     1
#>  2      2 United States of America  1816     2
#>  3      2 United States of America  1816     3
#>  4      2 United States of America  1816     4
#>  5      2 United States of America  1816     5
#>  6      2 United States of America  1816     6
#>  7      2 United States of America  1816     7
#>  8      2 United States of America  1816     8
#>  9      2 United States of America  1816     9
#> 10      2 United States of America  1816    10
#> # … with 222,360 more rows
…
create_statedays(system = "gw") %>%
  mutate(year = year(date),
         month = month(date)) %>%
  filter(month %in% c(1, 4, 7, 10)) %>%
  mutate(quarter = case_when(
    month == 1 ~ "Q1",
    month == 4 ~ "Q2",
    month == 7 ~ "Q3",
    month == 10 ~ "Q4"
  )) %>%
  distinct(gwcode, statename, year, quarter)
#> # A tibble: 74,079 × 4
#>    gwcode statename                 year quarter
#>     <dbl> <chr>                    <dbl> <chr>  
#>  1      2 United States of America  1816 Q1     
#>  2      2 United States of America  1816 Q2     
#>  3      2 United States of America  1816 Q3     
#>  4      2 United States of America  1816 Q4     
#>  5      2 United States of America  1817 Q1     
#>  6      2 United States of America  1817 Q2     
#>  7      2 United States of America  1817 Q3     
#>  8      2 United States of America  1817 Q4     
#>  9      2 United States of America  1818 Q1     
#> 10      2 United States of America  1818 Q2     
#> # … with 74,069 more rows

Leader-Day (Leader-Month, Leader-Year) Data

peacesciencer has leader-level units of analysis as
well, which can be easily created with the modified Archigos
(archigos) data in peacesciencer. The data
are version 4.1.

archigos
#> # A tibble: 3,409 × 11
#>    obsid    gwcode leadid leader yrborn gender startdate  enddate    entry exit 
#>    <chr>     <dbl> <chr>  <chr>   <dbl> <chr>  <date>     <date>     <chr> <chr>
#>  1 USA-1869      2 81dcc… Grant    1822 M      1869-03-04 1877-03-04 Regu… Regu…
#>  2 USA-1877      2 81dcc… Hayes    1822 M      1877-03-04 1881-03-04 Regu… Regu…
#>  3 USA-188…      2 81dcf… Garfi…   1831 M      1881-03-04 1881-09-19 Regu… Irre…
#>  4 USA-188…      2 81dcf… Arthur   1829 M      1881-09-19 1885-03-04 Regu… Regu…
#>  5 USA-1885      2 34fb1… Cleve…   1837 M      1885-03-04 1889-03-04 Regu… Regu…
#>  6 USA-1889      2 81dcf… Harri…   1833 M      1889-03-04 1893-03-04 Regu… Regu…
#>  7 USA-1893      2 34fb1… Cleve…   1837 M      1893-03-04 1897-03-04 Regu… Regu…
#>  8 USA-1897      2 81dcf… McKin…   1843 M      1897-03-04 1901-09-14 Regu… Irre…
#>  9 USA-1901      2 81dd2… Roose…   1858 M      1901-09-14 1909-03-04 Regu… Regu…
#> 10 USA-1909      2 81dd2… Taft     1857 M      1909-03-04 1913-03-04 Regu… Regu…
#> # … with 3,399 more rows, and 1 more variable: exitcode <chr>

create_leaderdays() will create leader-day data from
archigos.

create_leaderdays()
#> # A tibble: 5,298,380 × 5
#>    obsid    gwcode leader date       yrinoffice
#>    <chr>     <dbl> <chr>  <date>          <dbl>
#>  1 USA-1869      2 Grant  1869-03-04          1
#>  2 USA-1869      2 Grant  1869-03-05          1
#>  3 USA-1869      2 Grant  1869-03-06          1
#>  4 USA-1869      2 Grant  1869-03-07          1
#>  5 USA-1869      2 Grant  1869-03-08          1
#>  6 USA-1869      2 Grant  1869-03-09          1
#>  7 USA-1869      2 Grant  1869-03-10          1
#>  8 USA-1869      2 Grant  1869-03-11          1
#>  9 USA-1869      2 Grant  1869-03-12          1
#> 10 USA-1869      2 Grant  1869-03-13          1
#> # … with 5,298,370 more rows
…
create_leaderdays(standardize = "cow")
#> Joining with `by = join_by(gwcode, year)`
#> Joining with `by = join_by(ccode, date)`
#> # A tibble: 4,824,967 × 5
#>    obsid    ccode leader date       yrinoffice
#>    <chr>    <dbl> <chr>  <date>          <dbl>
#>  1 USA-1869     2 Grant  1869-03-04          1
#>  2 USA-1869     2 Grant  1869-03-05          1
#>  3 USA-1869     2 Grant  1869-03-06          1
#>  4 USA-1869     2 Grant  1869-03-07          1
#>  5 USA-1869     2 Grant  1869-03-08          1
#>  6 USA-1869     2 Grant  1869-03-09          1
#>  7 USA-1869     2 Grant  1869-03-10          1
#>  8 USA-1869     2 Grant  1869-03-11          1
#>  9 USA-1869     2 Grant  1869-03-12          1
#> 10 USA-1869     2 Grant  1869-03-13          1
#> # … with 4,824,957 more rows

The user may want to think about some additional post-processing on
top of this, but this is enough to get started. From there, the same
process that creates state-months can create something like
leader-months.

create_leaderdays() %>%
  mutate(year = year(date),
         month = month(date)) %>%
  group_by(gwcode, obsid, year, month) %>%
  slice(1)
#> # A tibble: 177,128 × 7
#> # Groups:   gwcode, obsid, year, month [177,128]
#>    obsid    gwcode leader date       yrinoffice  year month
#>    <chr>     <dbl> <chr>  <date>          <dbl> <dbl> <dbl>
#>  1 USA-1869      2 Grant  1869-03-04          1  1869     3
#>  2 USA-1869      2 Grant  1869-04-01          1  1869     4
#>  3 USA-1869      2 Grant  1869-05-01          1  1869     5
#>  4 USA-1869      2 Grant  1869-06-01          1  1869     6
#>  5 USA-1869      2 Grant  1869-07-01          1  1869     7
#>  6 USA-1869      2 Grant  1869-08-01          1  1869     8
#>  7 USA-1869      2 Grant  1869-09-01          1  1869     9
#>  8 USA-1869      2 Grant  1869-10-01          1  1869    10
#>  9 USA-1869      2 Grant  1869-11-01          1  1869    11
#> 10 USA-1869      2 Grant  1869-12-01          1  1869    12
#> # … with 177,118 more rows

And here are leader-years, which are pre-packaged as a
peacesciencer function. The package also adds some
information about leader gender, an approximation of the leader’s age
that year (i.e. year - yrborn), and a running count
(starting a 1) for the leader’s tenure (in years).

create_leaderyears()
#> # A tibble: 17,686 × 7
#>    obsid    leader gwcode gender leaderage  year yrinoffice
#>    <chr>    <chr>   <dbl> <chr>      <dbl> <dbl>      <dbl>
#>  1 USA-1869 Grant       2 M             47  1869          1
#>  2 USA-1869 Grant       2 M             48  1870          2
#>  3 USA-1869 Grant       2 M             49  1871          3
#>  4 USA-1869 Grant       2 M             50  1872          4
#>  5 USA-1869 Grant       2 M             51  1873          5
#>  6 USA-1869 Grant       2 M             52  1874          6
#>  7 USA-1869 Grant       2 M             53  1875          7
#>  8 USA-1869 Grant       2 M             54  1876          8
#>  9 USA-1869 Grant       2 M             55  1877          9
#> 10 USA-1877 Hayes       2 M             55  1877          1
#> # … with 17,676 more rows
…
