A Discussion of Various Joins in `{peacesciencer}` • peacesciencer
…
Notice that Pete drops from these data because, in this simple example, Pete was a puppet head of state installed by Archie when state A invaded and occupied B. The semi-join here is simply standardizing the leader data to the state system data, which is effectively what’s happening with the semi-joins in create_leaderdays() (and its aggregation function: create_leaderyears()).

Anti-Join

The anti-join is another type of filtering join, returning all rows from the left object (x) without a match in the right object (y). This type of join appears just once in peacesciencer. Prominently, peacesciencer prepares and presents two data sets in this package—false_cow_dyads and false_gw_dyads—that represent directed dyad-years in the Correlates of War and Gleditsch-Ward systems that were active in the same year, but never at the same time on the same year.

Here are those dyads for context.

false_cow_dyads
#> # A tibble: 60 × 4
#>    ccode1 ccode2  year in_ps
#>     <dbl>  <dbl> <int> <dbl>
#>  1    115    817  1975     1
#>  2    210    255  1945     1
#>  3    211    255  1945     1
#>  4    223    678  1990     1
#>  5    223    680  1990     1
#>  6    255    210  1945     1
#>  7    255    211  1945     1
#>  8    255    260  1990     1
#>  9    255    265  1990     1
#> 10    255    290  1945     1
#> # … with 50 more rows

false_gw_dyads
#> # A tibble: 38 × 4
#>    gwcode1 gwcode2  year in_ps
#>      <dbl>   <dbl> <int> <dbl>
#>  1      99     100  1830     1
#>  2      99     211  1830     1
#>  3     100      99  1830     1
#>  4     100     615  1830     1
#>  5     115     817  1975     1
#>  6     211      99  1830     1
#>  7     211     615  1830     1
#>  8     255     850  1945     1
#>  9     300     305  1918     1
#> 10     300     345  1918     1
#> # … with 28 more rows
…
Notice both Suriname and Republic of Vietnam were both active in 1975. Suriname appears on Nov. 25, 1975 whereas the Republic of Vietnam exits on April 30, 1975. However, there is no daily overlap between the two because they did not exist at any point on the same day in 1975. These are false dyads. anti_join() is used in the create_dyadyears() function to remove these observations before presenting them to the user.

Here is a simple example of what an anti-join is doing with these examples in mind.

valid_dyads <- tibble(ccode1 = c(2, 20, 200),
                      ccode2 = c(20, 200, 900),
                      year = c(2016, 2017, 2018))

valid_dyads %>%
  bind_rows(., false_cow_dyads %>% select(ccode1:year)) -> valid_and_invalid

valid_and_invalid 
#> # A tibble: 63 × 3
#>    ccode1 ccode2  year
#>     <dbl>  <dbl> <dbl>
#>  1      2     20  2016
#>  2     20    200  2017
#>  3    200    900  2018
#>  4    115    817  1975
#>  5    210    255  1945
#>  6    211    255  1945
#>  7    223    678  1990
#>  8    223    680  1990
#>  9    255    210  1945
#> 10    255    211  1945
#> # … with 53 more rows
…
