Various Parlor Tricks in `{peacesciencer}` • peacesciencer
…
# Add in new state variable after the fact
create_stateyears(system = 'gw') %>%
  group_by(gwcode) %>%
  mutate(newstate = ifelse(row_number() <= 2, 1, 0)) %>%
  left_join(Data, .) %>%
  select(gwcode:ucdponset, newstate, everything()) -> Data
#> Joining with `by = join_by(gwcode, statename, year)`

# Proof of concept: Here's India
Data %>% filter(gwcode == 750)
#> # A tibble: 73 × 9
#>    gwcode statename  year ucdpongoing ucdponset newstate maxintensity
#>     <dbl> <chr>     <dbl>       <dbl>     <dbl>    <dbl>        <dbl>
#>  1    750 India      1947           0         0        1           NA
#>  2    750 India      1948           1         1        1            2
#>  3    750 India      1949           1         0        0            2
#>  4    750 India      1950           1         0        0            2
#>  5    750 India      1951           1         0        0            2
#>  6    750 India      1952           0         0        0           NA
#>  7    750 India      1953           0         0        0           NA
#>  8    750 India      1954           0         0        0           NA
#>  9    750 India      1955           0         0        0           NA
#> 10    750 India      1956           1         1        0            1
#> # ℹ 63 more rows
#> # ℹ 2 more variables: conflict_ids <chr>, ucdpspell <dbl>

# And here's Belize
Data %>% filter(gwcode == 80)
#> # A tibble: 39 × 9
#>    gwcode statename  year ucdpongoing ucdponset newstate maxintensity
#>     <dbl> <chr>     <dbl>       <dbl>     <dbl>    <dbl>        <dbl>
#>  1     80 Belize     1981           0         0        1           NA
#>  2     80 Belize     1982           0         0        1           NA
#>  3     80 Belize     1983           0         0        0           NA
#>  4     80 Belize     1984           0         0        0           NA
#>  5     80 Belize     1985           0         0        0           NA
#>  6     80 Belize     1986           0         0        0           NA
#>  7     80 Belize     1987           0         0        0           NA
#>  8     80 Belize     1988           0         0        0           NA
#>  9     80 Belize     1989           0         0        0           NA
#> 10     80 Belize     1990           0         0        0           NA
#> # ℹ 29 more rows
#> # ℹ 2 more variables: conflict_ids <chr>, ucdpspell <dbl>
…
                            "ccode2 >= ccode1")) %>%
  group_split(whichside, relpow)
#> <list_of<
#>   tbl_df<
#>     ccode1   : double
#>     ccode2   : double
#>     year     : double
#>     cinc1    : double
#>     cinc2    : double
#>     relpow   : double
#>     whichside: character
#>   >
#> >[6]>
#> [[1]]
#> # A tibble: 132,639 × 7
#>    ccode1 ccode2  year cinc1 cinc2 relpow whichside      
#>     <dbl>  <dbl> <dbl> <dbl> <dbl>  <dbl> <chr>          
#>  1      2    200  1892 0.173 0.173      0 ccode1 > ccode2
#>  2      2    200  1897 0.169 0.166      0 ccode1 > ccode2
#>  3      2    200  1898 0.197 0.157      0 ccode1 > ccode2
#>  4      2    200  1899 0.185 0.169      0 ccode1 > ccode2
#>  5      2    200  1900 0.188 0.178      0 ccode1 > ccode2
#>  6      2    200  1901 0.203 0.174      0 ccode1 > ccode2
#>  7      2    200  1902 0.208 0.161      0 ccode1 > ccode2
#>  8      2    200  1903 0.210 0.143      0 ccode1 > ccode2
#>  9      2    200  1904 0.205 0.135      0 ccode1 > ccode2
#> 10      2    200  1905 0.214 0.121      0 ccode1 > ccode2
#> # ℹ 132,629 more rows
#> 
#> [[2]]
#> # A tibble: 114,225 × 7
#>    ccode1 ccode2  year  cinc1   cinc2 relpow whichside      
#>     <dbl>  <dbl> <dbl>  <dbl>   <dbl>  <dbl> <chr>          
#>  1      2     70  1831 0.0420 0.00945      1 ccode1 > ccode2
#>  2      2     70  1832 0.0445 0.00963      1 ccode1 > ccode2
#>  3      2     70  1833 0.0481 0.00958      1 ccode1 > ccode2
#>  4      2     70  1834 0.0478 0.00971      1 ccode1 > ccode2
#>  5      2     70  1835 0.0485 0.00980      1 ccode1 > ccode2
#>  6      2     70  1836 0.0510 0.00941      1 ccode1 > ccode2
#>  7      2     70  1837 0.0535 0.00975      1 ccode1 > ccode2
#>  8      2     70  1838 0.0533 0.00966      1 ccode1 > ccode2
#>  9      2     70  1839 0.0508 0.00948      1 ccode1 > ccode2
#> 10      2     70  1840 0.0495 0.00898      1 ccode1 > ccode2
#> # ℹ 114,215 more rows
#> 
#> [[3]]
#> # A tibble: 198,867 × 7
#>    ccode1 ccode2  year cinc1   cinc2 relpow whichside      
#>     <dbl>  <dbl> <dbl> <dbl>   <dbl>  <dbl> <chr>          
#>  1      2     20  1920 0.290 0.0101       2 ccode1 > ccode2
#>  2      2     20  1921 0.253 0.0105       2 ccode1 > ccode2
#>  3      2     20  1922 0.256 0.00841      2 ccode1 > ccode2
#>  4      2     20  1923 0.272 0.00986      2 ccode1 > ccode2
#>  5      2     20  1924 0.254 0.00889      2 ccode1 > ccode2
#>  6      2     20  1925 0.254 0.00870      2 ccode1 > ccode2
#>  7      2     20  1926 0.263 0.00924      2 ccode1 > ccode2
#>  8      2     20  1927 0.239 0.00937      2 ccode1 > ccode2
#>  9      2     20  1928 0.240 0.00970      2 ccode1 > ccode2
#> 10      2     20  1929 0.240 0.00980      2 ccode1 > ccode2
#> # ℹ 198,857 more rows
#> 
#> [[4]]
#> # A tibble: 141,100 × 7
#>    ccode1 ccode2  year  cinc1 cinc2 relpow whichside       
#>     <dbl>  <dbl> <dbl>  <dbl> <dbl>  <dbl> <chr>           
#>  1      2    200  1861 0.144  0.258      0 ccode2 >= ccode1
#>  2      2    200  1862 0.176  0.251      0 ccode2 >= ccode1
#>  3      2    200  1863 0.179  0.251      0 ccode2 >= ccode1
#>  4      2    200  1864 0.193  0.243      0 ccode2 >= ccode1
#>  5      2    200  1865 0.135  0.256      0 ccode2 >= ccode1
#>  6      2    200  1866 0.0982 0.248      0 ccode2 >= ccode1
#>  7      2    200  1867 0.114  0.253      0 ccode2 >= ccode1
#>  8      2    200  1868 0.107  0.253      0 ccode2 >= ccode1
#>  9      2    200  1869 0.108  0.246      0 ccode2 >= ccode1
#> 10      2    200  1870 0.0990 0.242      0 ccode2 >= ccode1
#> # ℹ 141,090 more rows
#> 
#> [[5]]
#> # A tibble: 133,564 × 7
#>    ccode1 ccode2  year  cinc1 cinc2 relpow whichside       
#>     <dbl>  <dbl> <dbl>  <dbl> <dbl>  <dbl> <chr>           
#>  1      2    200  1816 0.0397 0.337      1 ccode2 >= ccode1
#>  2      2    200  1817 0.0358 0.328      1 ccode2 >= ccode1
#>  3      2    200  1818 0.0361 0.329      1 ccode2 >= ccode1
#>  4      2    200  1819 0.0371 0.317      1 ccode2 >= ccode1
#>  5      2    200  1820 0.0371 0.317      1 ccode2 >= ccode1
#>  6      2    200  1821 0.0342 0.317      1 ccode2 >= ccode1
#>  7      2    200  1822 0.0329 0.311      1 ccode2 >= ccode1
#>  8      2    200  1823 0.0331 0.318      1 ccode2 >= ccode1
#>  9      2    200  1824 0.0330 0.330      1 ccode2 >= ccode1
#> 10      2    200  1825 0.0342 0.331      1 ccode2 >= ccode1
#> # ℹ 133,554 more rows
#> 
#> [[6]]
#> # A tibble: 235,749 × 7
#>    ccode1 ccode2  year   cinc1  cinc2 relpow whichside       
#>     <dbl>  <dbl> <dbl>   <dbl>  <dbl>  <dbl> <chr>           
#>  1     20    200  1920 0.0101  0.128       2 ccode2 >= ccode1
#>  2     20    200  1922 0.00841 0.0945      2 ccode2 >= ccode1
#>  3     20    200  1923 0.00986 0.0990      2 ccode2 >= ccode1
#>  4     20    200  1924 0.00889 0.107       2 ccode2 >= ccode1
#>  5     20    200  1925 0.00870 0.0956      2 ccode2 >= ccode1
#>  6     20    200  1939 0.00909 0.0997      2 ccode2 >= ccode1
#>  7     20    255  1934 0.00891 0.0891      2 ccode2 >= ccode1
#>  8     20    255  1935 0.00874 0.103       2 ccode2 >= ccode1
#>  9     20    255  1936 0.00865 0.115       2 ccode2 >= ccode1
#> 10     20    255  1937 0.00893 0.118       2 ccode2 >= ccode1
#> # ℹ 235,739 more rows
…
cow_nmc %>%
  group_by(year) %>%
  # calculate year proportions
  mutate(prop_tpop = tpop/sum(tpop, na.rm=T),
         prop_irst = irst/sum(irst, na.rm=T),
         prop_pec = pec/sum(pec, na.rm=T)) %>%
  ungroup() %>%
  # standardize an "economic capability" measure
  # then make an advanced dummy
  mutate(econcap = (prop_irst + prop_pec)/2,
         advanced = ifelse(econcap > prop_tpop, 1, 0)) %>%
  select(ccode, year, prop_tpop:ncol(.)) -> Advanced

Advanced
#> # A tibble: 15,951 × 7
#>    ccode  year prop_tpop prop_irst prop_pec econcap advanced
#>    <dbl> <dbl>     <dbl>     <dbl>    <dbl>   <dbl>    <dbl>
#>  1     2  1816    0.0398    0.0954  0.00966  0.0525        1
#>  2     2  1817    0.0404    0.0938  0.0103   0.0520        1
#>  3     2  1818    0.0411    0.102   0.0110   0.0564        1
#>  4     2  1819    0.0416    0.101   0.0104   0.0555        1
#>  5     2  1820    0.0422    0.113   0.0105   0.0617        1
#>  6     2  1821    0.0430    0.0927  0.0108   0.0518        1
#>  7     2  1822    0.0431    0.0950  0.0109   0.0530        1
#>  8     2  1823    0.0439    0.0933  0.0111   0.0522        1
#>  9     2  1824    0.0447    0.0861  0.0122   0.0491        1
#> 10     2  1825    0.0453    0.0891  0.0129   0.0510        1
#> # ℹ 15,941 more rows
…
  group_split(advancedcat) 
#> <list_of<
#>   tbl_df<
#>     ccode1     : double
#>     ccode2     : double
#>     year       : double
#>     cinc1      : double
#>     cinc2      : double
#>     advanced1  : double
#>     advanced2  : double
#>     advancedcat: double
#>   >
#> >[3]>
#> [[1]]
#> # A tibble: 538,707 × 8
#>    ccode1 ccode2  year     cinc1   cinc2 advanced1 advanced2 advancedcat
#>     <dbl>  <dbl> <dbl>     <dbl>   <dbl>     <dbl>     <dbl>       <dbl>
#>  1     31     40  1986 0.0000349 0.00326         0         0           0
#>  2     31     40  1987 0.0000349 0.00328         0         0           0
#>  3     31     40  1988 0.0000460 0.00334         0         0           0
#>  4     31     40  1989 0.0000584 0.00335         0         0           0
#>  5     31     40  1990 0.0000511 0.00325         0         0           0
#>  6     31     40  1991 0.0000432 0.00330         0         0           0
#>  7     31     40  1992 0.0000444 0.00271         0         0           0
#>  8     31     40  1993 0.0000479 0.00265         0         0           0
#>  9     31     40  1994 0.0000365 0.00198         0         0           0
#> 10     31     40  1995 0.0000355 0.00161         0         0           0
#> # ℹ 538,697 more rows
#> 
#> [[2]]
#> # A tibble: 344,483 × 8
#>    ccode1 ccode2  year cinc1     cinc2 advanced1 advanced2 advancedcat
#>     <dbl>  <dbl> <dbl> <dbl>     <dbl>     <dbl>     <dbl>       <dbl>
#>  1      2     31  1986 0.135 0.0000349         1         0           1
#>  2      2     31  1987 0.134 0.0000349         1         0           1
#>  3      2     31  1988 0.134 0.0000460         1         0           1
#>  4      2     31  1989 0.148 0.0000584         1         0           1
#>  5      2     31  1990 0.141 0.0000511         1         0           1
#>  6      2     31  1991 0.137 0.0000432         1         0           1
#>  7      2     31  1992 0.148 0.0000444         1         0           1
#>  8      2     31  1993 0.153 0.0000479         1         0           1
#>  9      2     31  1994 0.146 0.0000365         1         0           1
#> 10      2     31  1995 0.140 0.0000355         1         0           1
#> # ℹ 344,473 more rows
#> 
#> [[3]]
#> # A tibble: 54,945 × 8
#>    ccode1 ccode2  year cinc1   cinc2 advanced1 advanced2 advancedcat
#>     <dbl>  <dbl> <dbl> <dbl>   <dbl>     <dbl>     <dbl>       <dbl>
#>  1      2     20  1920 0.290 0.0101          1         1           2
#>  2      2     20  1921 0.253 0.0105          1         1           2
#>  3      2     20  1922 0.256 0.00841         1         1           2
#>  4      2     20  1923 0.272 0.00986         1         1           2
#>  5      2     20  1924 0.254 0.00889         1         1           2
#>  6      2     20  1925 0.254 0.00870         1         1           2
#>  7      2     20  1926 0.263 0.00924         1         1           2
#>  8      2     20  1927 0.239 0.00937         1         1           2
#>  9      2     20  1928 0.240 0.00970         1         1           2
#> 10      2     20  1929 0.240 0.00980         1         1           2
#> # ℹ 54,935 more rows
…
cow_nmc %>%
  group_by(year) %>%
  # calculate year proportions
  mutate(prop_tpop = tpop/sum(tpop, na.rm=T),
         prop_milex = milex/sum(milex, na.rm=T),
         prop_milper = milper/sum(milper, na.rm=T)) %>%
  ungroup() %>%
  # standardize a "military capability" measure
  # then make an advanced dummy
  mutate(militcap = (prop_milper + prop_milex)/2,
         militarized = ifelse(militcap > prop_tpop, 1, 0)) %>%
  select(ccode, year, prop_tpop:ncol(.)) -> Militarized

Militarized
#> # A tibble: 15,951 × 7
#>    ccode  year prop_tpop prop_milex prop_milper militcap militarized
#>    <dbl> <dbl>     <dbl>      <dbl>       <dbl>    <dbl>       <dbl>
#>  1     2  1816    0.0398     0.0682     0.00859   0.0384           0
#>  2     2  1817    0.0404     0.0451     0.00827   0.0267           0
#>  3     2  1818    0.0411     0.0370     0.00832   0.0227           0
#>  4     2  1819    0.0416     0.0449     0.00709   0.0260           0
#>  5     2  1820    0.0422     0.0310     0.00733   0.0192           0
#>  6     2  1821    0.0430     0.0345     0.00486   0.0197           0
#>  7     2  1822    0.0431     0.0249     0.00417   0.0146           0
#>  8     2  1823    0.0439     0.0249     0.00534   0.0151           0
#>  9     2  1824    0.0447     0.0295     0.00474   0.0171           0
#> 10     2  1825    0.0453     0.0321     0.00511   0.0186           0
#> # ℹ 15,941 more rows
…
Bremer %>% select(ccode1:year, militarized1:ncol(.)) %>% 
  na.omit %>%
  group_split(militcat) 
#> <list_of<
#>   tbl_df<
#>     ccode1      : double
#>     ccode2      : double
#>     year        : double
#>     militarized1: double
#>     militarized2: double
#>     militcat    : double
#>   >
#> >[3]>
#> [[1]]
#> # A tibble: 303,368 × 6
#>    ccode1 ccode2  year militarized1 militarized2 militcat
#>     <dbl>  <dbl> <dbl>        <dbl>        <dbl>    <dbl>
#>  1      2     20  1923            0            0        0
#>  2      2     20  1925            0            0        0
#>  3      2     20  1926            0            0        0
#>  4      2     20  1927            0            0        0
#>  5      2     20  1928            0            0        0
#>  6      2     20  1929            0            0        0
#>  7      2     20  1930            0            0        0
#>  8      2     20  1931            0            0        0
#>  9      2     20  1932            0            0        0
#> 10      2     20  1933            0            0        0
#> # ℹ 303,358 more rows
#> 
#> [[2]]
#> # A tibble: 340,196 × 6
#>    ccode1 ccode2  year militarized1 militarized2 militcat
#>     <dbl>  <dbl> <dbl>        <dbl>        <dbl>    <dbl>
#>  1      2     20  1920            1            0        1
#>  2      2     20  1921            1            0        1
#>  3      2     20  1922            1            0        1
#>  4      2     20  1924            1            0        1
#>  5      2     20  1947            1            0        1
#>  6      2     20  1948            1            0        1
#>  7      2     20  1949            1            0        1
#>  8      2     20  1950            1            0        1
#>  9      2     20  1971            1            0        1
#> 10      2     20  1973            1            0        1
#> # ℹ 340,186 more rows
#> 
#> [[3]]
#> # A tibble: 112,758 × 6
#>    ccode1 ccode2  year militarized1 militarized2 militcat
#>     <dbl>  <dbl> <dbl>        <dbl>        <dbl>    <dbl>
#>  1      2     20  1942            1            1        2
#>  2      2     20  1943            1            1        2
#>  3      2     20  1944            1            1        2
#>  4      2     20  1945            1            1        2
#>  5      2     20  1946            1            1        2
#>  6      2     20  1951            1            1        2
#>  7      2     20  1952            1            1        2
#>  8      2     20  1953            1            1        2
#>  9      2     20  1954            1            1        2
#> 10      2     20  1955            1            1        2
#> # ℹ 112,748 more rows
…
# Here's a snapshot of U.S-Cuba from 1980-89 for illustration sake.
NDY %>%
  filter(ccode1 == 2 & ccode2 == 40) %>%
  select(ccode1:year, cowmidongoing, gmlmidongoing, cowmidspell:gmlmidspell) %>%
  filter(year >= 1980)
#> # A tibble: 37 × 7
#>    ccode1 ccode2  year cowmidongoing gmlmidongoing cowmidspell gmlmidspell
#>     <dbl>  <dbl> <dbl>         <dbl>         <dbl>       <dbl>       <dbl>
#>  1      2     40  1980             0             0           0           0
#>  2      2     40  1981             1             1           1           1
#>  3      2     40  1982             0             0           0           0
#>  4      2     40  1983             1             1           1           1
#>  5      2     40  1984             0             0           0           0
#>  6      2     40  1985             0             0           1           1
#>  7      2     40  1986             0             1           2           2
#>  8      2     40  1987             1             1           3           0
#>  9      2     40  1988             0             0           0           0
#> 10      2     40  1989             0             0           1           1
#> # ℹ 27 more rows
…
  # select just a few things
  select(gwcode, ccode, year, statename, ucdpongoing, ucdponset,
         cowintraongoing, cowintraonset) %>%
  add_peace_years() %>%
  select(gwcode:statename, ucdpspell, cowintraspell, everything()) %>%
  # India is illustrative of how the two differ.
  # UCDP has an intra-state conflict to the level of war early 
  #  into its existence. CoW does not.
  filter(gwcode == 750)
#> Joining with `by = join_by(gwcode, year)`
#> Joining with `by = join_by(gwcode, year)`
#> Joining with `by = join_by(year, ccode)`
#> Joining with `by = join_by(gwcode, year)`
#> Joining with `by = join_by(ccode, year)`
#> # A tibble: 73 × 10
#>    gwcode ccode  year statename ucdpspell cowintraspell ucdpongoing ucdponset
#>     <dbl> <dbl> <dbl> <chr>         <dbl>         <dbl>       <dbl>     <dbl>
#>  1    750   750  1947 India             0             0           0         0
#>  2    750   750  1948 India             1             1           1         1
#>  3    750   750  1949 India             0             2           1         0
#>  4    750   750  1950 India             0             3           1         0
#>  5    750   750  1951 India             0             4           1         0
#>  6    750   750  1952 India             0             5           0         0
#>  7    750   750  1953 India             1             6           0         0
#>  8    750   750  1954 India             2             7           0         0
#>  9    750   750  1955 India             3             8           0         0
#> 10    750   750  1956 India             4             9           0         0
#> # ℹ 63 more rows
#> # ℹ 2 more variables: cowintraongoing <dbl>, cowintraonset <dbl>
…
