Add Correlates of War international governmental organizations (IGOs) data to dyad-year or state-year data. — add_igos • peacesciencer
…
    Author

    Steven V. Miller

    Examples

# \donttest{

# just call library(tidyverse) at the top of the pipe
library(magrittr)

cow_ddy %>% add_igos()
#> Joining with `by = join_by(ccode1, ccode2, year)`
#> # A tibble: 2,214,930 × 4
#>    ccode1 ccode2  year dyadigos
#>     <dbl>  <dbl> <dbl>    <dbl>
#>  1      2     20  1920        7
#>  2      2     20  1921        8
#>  3      2     20  1922        8
#>  4      2     20  1923        7
#>  5      2     20  1924        7
#>  6      2     20  1925        8
#>  7      2     20  1926        8
#>  8      2     20  1927        8
#>  9      2     20  1928        8
#> 10      2     20  1929        8
#> # ℹ 2,214,920 more rows

create_stateyears() %>% add_igos()
#> Joining with `by = join_by(ccode, year)`
#> # A tibble: 17,511 × 7
#>    ccode statenme           year sum_igo_full sum_igo_associate sum_igo_observer
#>    <dbl> <chr>             <dbl>        <dbl>             <dbl>            <dbl>
#>  1     2 United States of…  1816            0                 0                0
#>  2     2 United States of…  1817            0                 0                0
#>  3     2 United States of…  1818            0                 0                0
#>  4     2 United States of…  1819            0                 0                0
#>  5     2 United States of…  1820            0                 0                0
#>  6     2 United States of…  1821            0                 0                0
#>  7     2 United States of…  1822            0                 0                0
#>  8     2 United States of…  1823            0                 0                0
#>  9     2 United States of…  1824            0                 0                0
#> 10     2 United States of…  1825            0                 0                0
#> # ℹ 17,501 more rows
#> # ℹ 1 more variable: sum_igo_anytype <dbl>
…
