Add Gibler-Miller-Little (GML) Militarized Interstate Dispute (MID) data to dyad-year data frame — add_mids • peacesciencer
…
    Steven V. Miller

    Examples

# \donttest{
# just call `library(tidyverse)` at the top of the your script
library(magrittr)
cow_ddy %>% add_mids()

#> Warning: 'add_mids' is deprecated.
#> Use 'add_gml_mids' instead.
#> See help("Deprecated")
#> Joining, by = c("ccode1", "ccode2", "year")
#> # A tibble: 2,025,840 x 39
#>    ccode1 ccode2  year dispnum midongoing midonset sidea1 sidea2 revstate1
#>     <dbl>  <dbl> <dbl>   <dbl>      <dbl>    <dbl>  <dbl>  <dbl>     <dbl>
#>  1      2     20  1920      NA          0        0     NA     NA        NA
#>  2      2     20  1921      NA          0        0     NA     NA        NA
#>  3      2     20  1922      NA          0        0     NA     NA        NA
#>  4      2     20  1923      NA          0        0     NA     NA        NA
#>  5      2     20  1924      NA          0        0     NA     NA        NA
#>  6      2     20  1925      NA          0        0     NA     NA        NA
#>  7      2     20  1926      NA          0        0     NA     NA        NA
#>  8      2     20  1927      NA          0        0     NA     NA        NA
#>  9      2     20  1928      NA          0        0     NA     NA        NA
#> 10      2     20  1929      NA          0        0     NA     NA        NA
#> # … with 2,025,830 more rows, and 30 more variables: revstate2 <dbl>,
#> #   revtype11 <dbl>, revtype12 <dbl>, revtype21 <dbl>, revtype22 <dbl>,
#> #   fatality1 <dbl>, fatality2 <dbl>, fatalpre1 <dbl>, fatalpre2 <dbl>,
#> #   hiact1 <dbl>, hiact2 <dbl>, hostlev1 <dbl>, hostlev2 <dbl>, orig1 <dbl>,
#> #   orig2 <dbl>, hiact <dbl>, hostlev <dbl>, mindur <dbl>, maxdur <dbl>,
#> #   outcome <dbl>, settle <dbl>, fatality <dbl>, fatalpre <dbl>, stmon <dbl>,
#> #   endmon <dbl>, recip <dbl>, numa <dbl>, numb <dbl>, ongo2010 <dbl>,
#> #   version <chr>

# keep just the dispute number and Side A/B identifiers
cow_ddy %>% add_mids(keep=c("dispnum","sidea1", "sidea2"))

#> Warning: 'add_mids' is deprecated.
#> Use 'add_gml_mids' instead.
#> See help("Deprecated")
#> Joining, by = c("ccode1", "ccode2", "year")
#> # A tibble: 2,025,840 x 8
#>    ccode1 ccode2  year midonset midongoing dispnum sidea1 sidea2
#>     <dbl>  <dbl> <dbl>    <dbl>      <dbl>   <dbl>  <dbl>  <dbl>
#>  1      2     20  1920        0          0      NA     NA     NA
#>  2      2     20  1921        0          0      NA     NA     NA
#>  3      2     20  1922        0          0      NA     NA     NA
#>  4      2     20  1923        0          0      NA     NA     NA
#>  5      2     20  1924        0          0      NA     NA     NA
#>  6      2     20  1925        0          0      NA     NA     NA
#>  7      2     20  1926        0          0      NA     NA     NA
#>  8      2     20  1927        0          0      NA     NA     NA
#>  9      2     20  1928        0          0      NA     NA     NA
#> 10      2     20  1929        0          0      NA     NA     NA
#> # … with 2,025,830 more rows
…
