Add Correlates of War state system codes to your data with Gleditsch-Ward state codes. — add_ccode_to_gw • peacesciencer
…
    Author

    Steven V. Miller

    Examples

# \donttest{
# just call `library(tidyverse)` at the top of the your script
library(magrittr)

create_dyadyears(system = "gw") %>% add_ccode_to_gw()
#> Joining with `by = join_by(gwcode1, gwcode2, year, microstate1, microstate2)`
#> # A tibble: 2,599,466 × 7
#>    gwcode1 gwcode2  year microstate1 microstate2 ccode1 ccode2
#>      <dbl>   <dbl> <dbl>       <dbl>       <dbl>  <dbl>  <dbl>
#>  1       2      20  1867           0           0      2     NA
#>  2       2      20  1868           0           0      2     NA
#>  3       2      20  1869           0           0      2     NA
#>  4       2      20  1870           0           0      2     NA
#>  5       2      20  1871           0           0      2     NA
#>  6       2      20  1872           0           0      2     NA
#>  7       2      20  1873           0           0      2     NA
#>  8       2      20  1874           0           0      2     NA
#>  9       2      20  1875           0           0      2     NA
#> 10       2      20  1876           0           0      2     NA
#> # ℹ 2,599,456 more rows

create_stateyears(system = 'gw') %>% add_ccode_to_gw()
#> Joining with `by = join_by(gwcode, year)`
#> # A tibble: 20,652 × 5
#>    gwcode gw_name                  microstate  year ccode
#>     <dbl> <chr>                         <dbl> <dbl> <dbl>
#>  1      2 United States of America          0  1816     2
#>  2      2 United States of America          0  1817     2
#>  3      2 United States of America          0  1818     2
#>  4      2 United States of America          0  1819     2
#>  5      2 United States of America          0  1820     2
#>  6      2 United States of America          0  1821     2
#>  7      2 United States of America          0  1822     2
#>  8      2 United States of America          0  1823     2
#>  9      2 United States of America          0  1824     2
#> 10      2 United States of America          0  1825     2
#> # ℹ 20,642 more rows
…
