Add Correlates of War (CoW) Militarized Interstate Dispute (MID) data to dyad-year data frame — add_cow_mids • peacesciencer
…
    Author

    Steven V. Miller

    Examples

# \donttest{
# just call `library(tidyverse)` at the top of the your script
library(magrittr)
cow_ddy %>% add_cow_mids()
#> Joining with `by = join_by(ccode1, ccode2, year)`
#> add_cow_mids() IMPORTANT MESSAGE: By default, this function whittles dispute-year data into dyad-year data by first selecting on unique onsets. Thereafter, where duplicates remain, it whittles dispute-year data into dyad-year data in the following order: 1) retaining highest `fatality`, 2) retaining highest `hostlev`, 3) retaining highest estimated `mindur`, 4) retaining highest estimated `maxdur`, 5) retaining reciprocated over non-reciprocated observations, 6) retaining the observation with the lowest start month, and, where duplicates still remained (and they don't), 7) forcibly dropping all duplicates for observations that are otherwise very similar.
#> See: http://svmiller.com/peacesciencer/articles/coerce-dispute-year-dyad-year.html
#> # A tibble: 2,214,930 × 24
#>    ccode1 ccode2  year dispnum cowmidongoing cowmidonset sidea1 sidea2 fatality1
#>     <dbl>  <dbl> <dbl>   <dbl>         <dbl>       <dbl>  <dbl>  <dbl>     <dbl>
#>  1      2     20  1920      NA             0           0     NA     NA        NA
#>  2      2     20  1921      NA             0           0     NA     NA        NA
#>  3      2     20  1922      NA             0           0     NA     NA        NA
#>  4      2     20  1923      NA             0           0     NA     NA        NA
#>  5      2     20  1924      NA             0           0     NA     NA        NA
#>  6      2     20  1925      NA             0           0     NA     NA        NA
#>  7      2     20  1926      NA             0           0     NA     NA        NA
#>  8      2     20  1927      NA             0           0     NA     NA        NA
#>  9      2     20  1928      NA             0           0     NA     NA        NA
#> 10      2     20  1929      NA             0           0     NA     NA        NA
#> # ℹ 2,214,920 more rows
#> # ℹ 15 more variables: fatality2 <dbl>, fatalpre1 <dbl>, fatalpre2 <dbl>,
#> #   hiact1 <dbl>, hiact2 <dbl>, hostlev1 <dbl>, hostlev2 <dbl>, orig1 <dbl>,
#> #   orig2 <dbl>, fatality <dbl>, hostlev <dbl>, mindur <dbl>, maxdur <dbl>,
#> #   recip <dbl>, stmon <dbl>

# keep just the dispute number and Side A/B identifiers
cow_ddy %>% add_cow_mids(keep=c("dispnum","sidea1", "sidea2"))
#> Joining with `by = join_by(ccode1, ccode2, year)`
#> add_cow_mids() IMPORTANT MESSAGE: By default, this function whittles dispute-year data into dyad-year data by first selecting on unique onsets. Thereafter, where duplicates remain, it whittles dispute-year data into dyad-year data in the following order: 1) retaining highest `fatality`, 2) retaining highest `hostlev`, 3) retaining highest estimated `mindur`, 4) retaining highest estimated `maxdur`, 5) retaining reciprocated over non-reciprocated observations, 6) retaining the observation with the lowest start month, and, where duplicates still remained (and they don't), 7) forcibly dropping all duplicates for observations that are otherwise very similar.
#> See: http://svmiller.com/peacesciencer/articles/coerce-dispute-year-dyad-year.html
#> # A tibble: 2,214,930 × 8
#>    ccode1 ccode2  year cowmidonset cowmidongoing dispnum sidea1 sidea2
#>     <dbl>  <dbl> <dbl>       <dbl>         <dbl>   <dbl>  <dbl>  <dbl>
#>  1      2     20  1920           0             0      NA     NA     NA
#>  2      2     20  1921           0             0      NA     NA     NA
#>  3      2     20  1922           0             0      NA     NA     NA
#>  4      2     20  1923           0             0      NA     NA     NA
#>  5      2     20  1924           0             0      NA     NA     NA
#>  6      2     20  1925           0             0      NA     NA     NA
#>  7      2     20  1926           0             0      NA     NA     NA
#>  8      2     20  1927           0             0      NA     NA     NA
#>  9      2     20  1928           0             0      NA     NA     NA
#> 10      2     20  1929           0             0      NA     NA     NA
#> # ℹ 2,214,920 more rows
…
