Add (Select) Leader Experience and Attribute Descriptions (LEAD) Data to Leader-Year or Leader-Dyad-Year Data — add_lead • peacesciencer
…
    Author

    Steven V. Miller

    Examples

# \donttest{
# just call `library(tidyverse)` at the top of the your script
library(magrittr)

create_leaderyears() %>% add_lead()

#> Joining, by = c("gwcode", "year")
#> Joining, by = "obsid"
#> # A tibble: 17,686 × 19
#>    obsid     year gwcode leader gender leaderage yrinoffice leadid29 leveledu
#>    <chr>    <dbl>  <dbl> <chr>  <chr>      <dbl>      <int> <chr>       <dbl>
#>  1 USA-1869  1869      2 Grant  M             47          1 A2.9-1          2
#>  2 USA-1869  1870      2 Grant  M             48          2 A2.9-1          2
#>  3 USA-1869  1871      2 Grant  M             49          3 A2.9-1          2
#>  4 USA-1869  1872      2 Grant  M             50          4 A2.9-1          2
#>  5 USA-1869  1873      2 Grant  M             51          5 A2.9-1          2
#>  6 USA-1869  1874      2 Grant  M             52          6 A2.9-1          2
#>  7 USA-1869  1875      2 Grant  M             53          7 A2.9-1          2
#>  8 USA-1869  1876      2 Grant  M             54          8 A2.9-1          2
#>  9 USA-1869  1877      2 Grant  M             55          9 A2.9-1          2
#> 10 USA-1877  1877      2 Hayes  M             55          1 A2.9-4          3
#> # … with 17,676 more rows, and 10 more variables: milservice <dbl>,
#> #   combat <dbl>, rebel <dbl>, warwin <dbl>, warloss <dbl>, rebelwin <dbl>,
#> #   rebelloss <dbl>, yrsexper <dbl>, physhealth <dbl>, mentalhealth <dbl>

create_leaderyears() %>% add_lead(keep = c("yrsexper"))

#> Joining, by = c("gwcode", "year")
#> Joining, by = "obsid"
#> # A tibble: 17,686 × 8
#>    obsid     year gwcode leader gender leaderage yrinoffice yrsexper
#>    <chr>    <dbl>  <dbl> <chr>  <chr>      <dbl>      <int>    <dbl>
#>  1 USA-1869  1869      2 Grant  M             47          1        0
#>  2 USA-1869  1870      2 Grant  M             48          2        0
#>  3 USA-1869  1871      2 Grant  M             49          3        0
#>  4 USA-1869  1872      2 Grant  M             50          4        0
#>  5 USA-1869  1873      2 Grant  M             51          5        0
#>  6 USA-1869  1874      2 Grant  M             52          6        0
#>  7 USA-1869  1875      2 Grant  M             53          7        0
#>  8 USA-1869  1876      2 Grant  M             54          8        0
#>  9 USA-1869  1877      2 Grant  M             55          9        0
#> 10 USA-1877  1877      2 Hayes  M             55          1       12
#> # … with 17,676 more rows
…
