Add Thompson and Dreyer's (2012) strategic rivalry data to dyad-year data frame — add_strategic_rivalries • peacesciencer
…
Thompson, William R. and David Dreyer. 2012. Handbook of International Rivalries. CQ Press.

    Author

    Steven V. Miller

    Examples

# \donttest{
# just call `library(tidyverse)` at the top of the your script
library(magrittr)
cow_ddy %>% add_strategic_rivalries()
#> Joining with `by = join_by(ccode1, ccode2, year)`
#> # A tibble: 2,214,930 × 12
#>    ccode1 ccode2  year rivalryno rivalryname styear endyear region type1 type2
#>     <dbl>  <dbl> <int>     <dbl> <chr>        <dbl>   <dbl> <chr>  <chr> <chr>
#>  1      2     20  1920        NA NA              NA      NA NA     NA    NA   
#>  2      2     20  1921        NA NA              NA      NA NA     NA    NA   
#>  3      2     20  1922        NA NA              NA      NA NA     NA    NA   
#>  4      2     20  1923        NA NA              NA      NA NA     NA    NA   
#>  5      2     20  1924        NA NA              NA      NA NA     NA    NA   
#>  6      2     20  1925        NA NA              NA      NA NA     NA    NA   
#>  7      2     20  1926        NA NA              NA      NA NA     NA    NA   
#>  8      2     20  1927        NA NA              NA      NA NA     NA    NA   
#>  9      2     20  1928        NA NA              NA      NA NA     NA    NA   
#> 10      2     20  1929        NA NA              NA      NA NA     NA    NA   
#> # ℹ 2,214,920 more rows
#> # ℹ 2 more variables: type3 <chr>, ongoingrivalry <dbl>

# across_types defaults to 1
create_stateyears() %>% add_strategic_rivalries()
#> Joining with `by = join_by(ccode, year)`
#> # A tibble: 17,511 × 7
#>    ccode statenme            year ideological interventionary positional spatial
#>    <dbl> <chr>              <int>       <dbl>           <dbl>      <dbl>   <dbl>
#>  1     2 United States of …  1816           0               0          1       1
#>  2     2 United States of …  1817           0               0          1       1
#>  3     2 United States of …  1818           0               0          1       1
#>  4     2 United States of …  1819           0               0          1       1
#>  5     2 United States of …  1820           0               0          1       0
#>  6     2 United States of …  1821           0               0          1       1
#>  7     2 United States of …  1822           0               0          1       1
#>  8     2 United States of …  1823           0               0          1       1
#>  9     2 United States of …  1824           0               0          1       1
#> 10     2 United States of …  1825           0               0          1       1
#> # ℹ 17,501 more rows
…
