Add "Spells" to Data — add_spells • peacesciencer
…
#> Joining, by = c("ccode1", "ccode2", "year")
#> add_gml_mids() IMPORTANT MESSAGE: By default, this function whittles dispute-year data into dyad-year data by first selecting on unique onsets. Thereafter, where duplicates remain, it whittles dispute-year data into dyad-year data in the following order: 1) retaining highest `fatality`, 2) retaining highest `hostlev`, 3) retaining highest estimated `mindur`, 4) retaining reciprocated over non-reciprocated observations, 5) retaining the observation with the lowest start month, and, where duplicates still remained (and they don't), 6) forcibly dropping all duplicates for observations that are otherwise very similar.
#> See: http://svmiller.com/peacesciencer/articles/coerce-dispute-year-dyad-year.html
#> Joining, by = c("ccode1", "ccode2", "year")
#> add_cow_mids() IMPORTANT MESSAGE: By default, this function whittles dispute-year data into dyad-year data by first selecting on unique onsets. Thereafter, where duplicates remain, it whittles dispute-year data into dyad-year data in the following order: 1) retaining highest `fatality`, 2) retaining highest `hostlev`, 3) retaining highest estimated `mindur`, 4) retaining reciprocated over non-reciprocated observations, 5) retaining the observation with the lowest start month, and, where duplicates still remained (and they don't), 6) forcibly dropping all duplicates for observations that are otherwise very similar.
#> See: http://svmiller.com/peacesciencer/articles/coerce-dispute-year-dyad-year.html
#> Joining, by = c("ccode1", "ccode2", "year")
#> Joining, by = "orig_order"
#> Joining, by = "orig_order"
#> # A tibble: 224,564 × 19
#>    ccode1 ccode2  year gmlmidonset gmlmidongoing init1 init2 sidea1 sidea2 orig1
#>     <dbl>  <dbl> <dbl>       <dbl>         <dbl> <dbl> <dbl>  <dbl>  <dbl> <dbl>
#>  1      2     20  1920           0             0    NA    NA     NA     NA    NA
#>  2      2     20  1921           0             0    NA    NA     NA     NA    NA
#>  3      2     20  1922           0             0    NA    NA     NA     NA    NA
#>  4      2     20  1923           0             0    NA    NA     NA     NA    NA
#>  5      2     20  1924           0             0    NA    NA     NA     NA    NA
#>  6      2     20  1925           0             0    NA    NA     NA     NA    NA
#>  7      2     20  1926           0             0    NA    NA     NA     NA    NA
#>  8      2     20  1927           0             0    NA    NA     NA     NA    NA
#>  9      2     20  1928           0             0    NA    NA     NA     NA    NA
#> 10      2     20  1929           0             0    NA    NA     NA     NA    NA
#> # … with 224,554 more rows, and 9 more variables: orig2 <dbl>,
#> #   cowmidonset <dbl>, cowmidongoing <dbl>, conttype <dbl>, cowmaj1 <dbl>,
#> #   cowmaj2 <dbl>, prd <dbl>, gmlmidspell <dbl>, cowmidspell <dbl>
…
