Add democracy information to a data frame — add_democracy • peacesciencer
…
    Please cite Miller (2022) for peacesciencer. Beyond that, consult the
documentation in isard for additional citations (contingent on which
democracy estimate you are using).

    Author

    Steven V. Miller

    Examples

# just call `library(tidyverse)` at the top of the your script
library(magrittr)

cow_ddy %>% add_democracy()
#> # A tibble: 2,214,930 × 11
#>    ccode1 ccode2  year euds1 aeuds1 polity21 v2x_polyarchy1 euds2 aeuds2
#>     <dbl>  <dbl> <dbl> <dbl>  <dbl>    <dbl>          <dbl> <dbl>  <dbl>
#>  1      2     20  1920  1.20  0.396        9          0.514  1.08  0.272
#>  2      2     20  1921  1.20  0.396        9          0.51   1.44  0.635
#>  3      2     20  1922  1.21  0.403        9          0.513  1.47  0.658
#>  4      2     20  1923  1.21  0.403        9          0.527  1.47  0.658
#>  5      2     20  1924  1.22  0.415        9          0.527  1.47  0.658
#>  6      2     20  1925  1.22  0.415        9          0.526  1.44  0.635
#>  7      2     20  1926  1.22  0.415        9          0.529  1.44  0.635
#>  8      2     20  1927  1.22  0.415        9          0.53   1.44  0.635
#>  9      2     20  1928  1.27  0.465        9          0.53   1.44  0.635
#> 10      2     20  1929  1.27  0.465        9          0.53   1.44  0.635
#> # ℹ 2,214,920 more rows
#> # ℹ 2 more variables: polity22 <dbl>, v2x_polyarchy2 <dbl>

create_stateyears(system="gw") %>% add_democracy()
#> Joining with `by = join_by(gwcode, year)`
#> # A tibble: 20,652 × 8
#>    gwcode gw_name          microstate  year  euds    aeuds polity2 v2x_polyarchy
#>     <dbl> <chr>                 <dbl> <dbl> <dbl>    <dbl>   <dbl>         <dbl>
#>  1      2 United States o…          0  1816 0.803 -0.00435       6         0.359
#>  2      2 United States o…          0  1817 0.803 -0.00435       6         0.357
#>  3      2 United States o…          0  1818 0.803 -0.00435       6         0.359
#>  4      2 United States o…          0  1819 0.803 -0.00435       6         0.359
#>  5      2 United States o…          0  1820 0.803 -0.00435       6         0.354
#>  6      2 United States o…          0  1821 0.803 -0.00435       6         0.349
#>  7      2 United States o…          0  1822 0.803 -0.00435       6         0.349
#>  8      2 United States o…          0  1823 0.803 -0.00435       6         0.348
#>  9      2 United States o…          0  1824 0.803 -0.00435       6         0.348
#> 10      2 United States o…          0  1825 0.811  0.00331       7         0.348
#> # ℹ 20,642 more rows
create_stateyears(system="cow") %>% add_democracy()
#> Joining with `by = join_by(ccode, year)`
#> # A tibble: 17,511 × 7
#>    ccode cw_name                   year  euds    aeuds polity2 v2x_polyarchy
#>    <dbl> <chr>                    <dbl> <dbl>    <dbl>   <dbl>         <dbl>
#>  1     2 United States of America  1816 0.803 -0.00435       6         0.359
#>  2     2 United States of America  1817 0.803 -0.00435       6         0.357
#>  3     2 United States of America  1818 0.803 -0.00435       6         0.359
#>  4     2 United States of America  1819 0.803 -0.00435       6         0.359
#>  5     2 United States of America  1820 0.803 -0.00435       6         0.354
#>  6     2 United States of America  1821 0.803 -0.00435       6         0.349
#>  7     2 United States of America  1822 0.803 -0.00435       6         0.349
#>  8     2 United States of America  1823 0.803 -0.00435       6         0.348
#>  9     2 United States of America  1824 0.803 -0.00435       6         0.348
#> 10     2 United States of America  1825 0.811  0.00331       7         0.348
#> # ℹ 17,501 more rows
…
