Add Gleditsch-Ward state system codes to dyad-year or state-year data with Correlates of War state codes. — add_gwcode_to_cow • peacesciencer
…
    Author

    Steven V. Miller

    Examples

# just call `library(tidyverse)` at the top of the your script
library(magrittr)

cow_ddy %>% add_gwcode_to_cow()

#> # A tibble: 2,025,840 x 5
#>    ccode1 ccode2  year gwcode1 gwcode2
#>     <dbl>  <dbl> <dbl>   <dbl>   <dbl>
#>  1      2     20  1920       2      20
#>  2      2     20  1921       2      20
#>  3      2     20  1922       2      20
#>  4      2     20  1923       2      20
#>  5      2     20  1924       2      20
#>  6      2     20  1925       2      20
#>  7      2     20  1926       2      20
#>  8      2     20  1927       2      20
#>  9      2     20  1928       2      20
#> 10      2     20  1929       2      20
#> # … with 2,025,830 more rows

create_stateyears() %>% add_gwcode_to_cow()

#> Joining, by = c("ccode", "year")
#> # A tibble: 16,731 x 4
#>    ccode statenme                  year gwcode
#>    <dbl> <chr>                    <dbl>  <dbl>
#>  1     2 United States of America  1816      2
#>  2     2 United States of America  1817      2
#>  3     2 United States of America  1818      2
#>  4     2 United States of America  1819      2
#>  5     2 United States of America  1820      2
#>  6     2 United States of America  1821      2
#>  7     2 United States of America  1822      2
#>  8     2 United States of America  1823      2
#>  9     2 United States of America  1824      2
#> 10     2 United States of America  1825      2
#> # … with 16,721 more rows
…
