Add Correlates of War war data to dyad-year or state-year data frame. — add_cow_wars • peacesciencer
…
    Author

    Steven V. Miller

    Examples

# \donttest{
# just call `library(tidyverse)` at the top of the your script
library(magrittr)

create_stateyears(system = "cow") %>%
add_cow_wars(type = "intra", intratype = "central control")
#> Joining with `by = join_by(ccode, year)`
#> # A tibble: 17,511 × 13
#>    ccode cw_name       year warnum warname wartype cowintraonset cowintraongoing
#>    <dbl> <chr>        <int>  <dbl> <chr>   <chr>           <dbl>           <dbl>
#>  1     2 United Stat…  1816     NA NA      NA                  0               0
#>  2     2 United Stat…  1817     NA NA      NA                  0               0
#>  3     2 United Stat…  1818     NA NA      NA                  0               0
#>  4     2 United Stat…  1819     NA NA      NA                  0               0
#>  5     2 United Stat…  1820     NA NA      NA                  0               0
#>  6     2 United Stat…  1821     NA NA      NA                  0               0
#>  7     2 United Stat…  1822     NA NA      NA                  0               0
#>  8     2 United Stat…  1823     NA NA      NA                  0               0
#>  9     2 United Stat…  1824     NA NA      NA                  0               0
#> 10     2 United Stat…  1825     NA NA      NA                  0               0
#> # ℹ 17,501 more rows
#> # ℹ 5 more variables: intnl <dbl>, outcome <dbl>, sideadeaths <dbl>,
#> #   sidebdeaths <dbl>, intrawarnums <chr>

create_stateyears(system = "cow") %>%
add_cow_wars(type = "intra", intratype = "local issues")
#> Joining with `by = join_by(ccode, year)`
#> # A tibble: 17,511 × 13
#>    ccode cw_name       year warnum warname wartype cowintraonset cowintraongoing
#>    <dbl> <chr>        <int>  <dbl> <chr>   <chr>           <dbl>           <dbl>
#>  1     2 United Stat…  1816     NA NA      NA                  0               0
#>  2     2 United Stat…  1817     NA NA      NA                  0               0
#>  3     2 United Stat…  1818     NA NA      NA                  0               0
#>  4     2 United Stat…  1819     NA NA      NA                  0               0
#>  5     2 United Stat…  1820     NA NA      NA                  0               0
#>  6     2 United Stat…  1821     NA NA      NA                  0               0
#>  7     2 United Stat…  1822     NA NA      NA                  0               0
#>  8     2 United Stat…  1823     NA NA      NA                  0               0
#>  9     2 United Stat…  1824     NA NA      NA                  0               0
#> 10     2 United Stat…  1825     NA NA      NA                  0               0
#> # ℹ 17,501 more rows
#> # ℹ 5 more variables: intnl <dbl>, outcome <dbl>, sideadeaths <dbl>,
#> #   sidebdeaths <dbl>, intrawarnums <chr>

cow_ddy %>% add_cow_wars(type = "inter")
#> Joining with `by = join_by(ccode1, ccode2, year)`
#> # A tibble: 2,214,930 × 14
#>    ccode1 ccode2  year cowinterongoing cowinteronset sidea1 sidea2 initiator1
#>     <dbl>  <dbl> <dbl>           <dbl>         <dbl>  <dbl>  <dbl>      <dbl>
#>  1      2     20  1920               0             0     NA     NA         NA
#>  2      2     20  1921               0             0     NA     NA         NA
#>  3      2     20  1922               0             0     NA     NA         NA
#>  4      2     20  1923               0             0     NA     NA         NA
#>  5      2     20  1924               0             0     NA     NA         NA
#>  6      2     20  1925               0             0     NA     NA         NA
#>  7      2     20  1926               0             0     NA     NA         NA
#>  8      2     20  1927               0             0     NA     NA         NA
#>  9      2     20  1928               0             0     NA     NA         NA
#> 10      2     20  1929               0             0     NA     NA         NA
#> # ℹ 2,214,920 more rows
#> # ℹ 6 more variables: initiator2 <dbl>, outcome1 <dbl>, outcome2 <dbl>,
#> #   batdeath1 <dbl>, batdeath2 <dbl>, resume <dbl>
…
