Add minimum distance data to your data frame — add_minimum_distance • peacesciencer
…
Weidmann, Nils B. and Kristian Skrede Gleditsch. 2010. "Mapping and Measuring
Country Shapes: The cshapes Package." The R Journal 2(1): 18-24.

    Author

    Steven V. Miller

    Examples

# \donttest{
# just call `library(tidyverse)` at the top of the your script
library(magrittr)
cow_ddy %>% add_minimum_distance(use_extdata = FALSE)
#> # A tibble: 2,214,930 × 4
#>    ccode1 ccode2  year mindist
#>     <dbl>  <dbl> <dbl>   <dbl>
#>  1      2     20  1920      NA
#>  2      2     20  1921       0
#>  3      2     20  1922       0
#>  4      2     20  1923       0
#>  5      2     20  1924       0
#>  6      2     20  1925       0
#>  7      2     20  1926       0
#>  8      2     20  1927       0
#>  9      2     20  1928       0
#> 10      2     20  1929       0
#> # ℹ 2,214,920 more rows
…
