Add UCDP Armed Conflict Data to state-year data frame — add_ucdp_acd • peacesciencer
…
create_stateyears(system = "gw") %>%
filter(between(year, 1946, 2019)) %>%
add_ucdp_acd()
#> Joining, by = c("gwcode", "year")
#> # A tibble: 10,490 × 7
#>    gwcode statename         year ucdpongoing ucdponset maxintensity conflict_ids
#>     <dbl> <chr>            <dbl>       <dbl>     <dbl>        <dbl> <chr>       
#>  1      2 United States o…  1946           0         0           NA NA          
#>  2      2 United States o…  1947           0         0           NA NA          
#>  3      2 United States o…  1948           0         0           NA NA          
#>  4      2 United States o…  1949           0         0           NA NA          
#>  5      2 United States o…  1950           1         1            1 238         
#>  6      2 United States o…  1951           0         0           NA NA          
#>  7      2 United States o…  1952           0         0           NA NA          
#>  8      2 United States o…  1953           0         0           NA NA          
#>  9      2 United States o…  1954           0         0           NA NA          
#> 10      2 United States o…  1955           0         0           NA NA          
#> # … with 10,480 more rows

create_stateyears(system = "gw") %>%
filter(between(year, 1946, 2019)) %>%
add_ucdp_acd(type = "intrastate", issue = "government")
#> Joining, by = c("gwcode", "year")
#> # A tibble: 10,490 × 7
#>    gwcode statename         year ucdpongoing ucdponset maxintensity conflict_ids
#>     <dbl> <chr>            <dbl>       <dbl>     <dbl>        <dbl> <chr>       
#>  1      2 United States o…  1946           0         0           NA NA          
#>  2      2 United States o…  1947           0         0           NA NA          
#>  3      2 United States o…  1948           0         0           NA NA          
#>  4      2 United States o…  1949           0         0           NA NA          
#>  5      2 United States o…  1950           0         0           NA NA          
#>  6      2 United States o…  1951           0         0           NA NA          
#>  7      2 United States o…  1952           0         0           NA NA          
#>  8      2 United States o…  1953           0         0           NA NA          
#>  9      2 United States o…  1954           0         0           NA NA          
#> 10      2 United States o…  1955           0         0           NA NA          
#> # … with 10,480 more rows
…
