Add capital-to-capital distance to a data frame — add_capital_distance • peacesciencer
…
    Author

    Steven V. Miller

    Examples

# \donttest{
# just call `library(tidyverse)` at the top of the your script
library(magrittr)
cow_ddy %>% add_capital_distance()
#> # A tibble: 2,214,930 × 4
#>    ccode1 ccode2  year capdist
#>     <dbl>  <dbl> <dbl>   <dbl>
#>  1      2     20  1920    735.
#>  2      2     20  1921    735.
#>  3      2     20  1922    735.
#>  4      2     20  1923    735.
#>  5      2     20  1924    735.
#>  6      2     20  1925    735.
#>  7      2     20  1926    735.
#>  8      2     20  1927    735.
#>  9      2     20  1928    735.
#> 10      2     20  1929    735.
#> # ℹ 2,214,920 more rows

create_stateyears() %>% add_capital_distance()
#> Joining with `by = join_by(ccode, year)`
#> # A tibble: 17,511 × 4
#>    ccode statenme                  year mincapdist
#>    <dbl> <chr>                    <dbl>      <dbl>
#>  1     2 United States of America  1816      5905.
#>  2     2 United States of America  1817      5905.
#>  3     2 United States of America  1818      5905.
#>  4     2 United States of America  1819      5905.
#>  5     2 United States of America  1820      5905.
#>  6     2 United States of America  1821      5905.
#>  7     2 United States of America  1822      5744.
#>  8     2 United States of America  1823      5744.
#>  9     2 United States of America  1824      5744.
#> 10     2 United States of America  1825      5744.
#> # ℹ 17,501 more rows
…
