Add Estimates of Leader Willingness to Use Force to Leader-Year Data — add_lwuf • peacesciencer
…
    Author

    Steven V. Miller

    Examples

# \donttest{
# just call `library(tidyverse)` at the top of the your script
library(magrittr)

create_leaderyears() %>% add_lwuf()
#> Joining with `by = join_by(obsid)`
#> # A tibble: 17,686 × 15
#>    obsid   leader gwcode gender leaderage  year yrinoffice theta1_mean theta1_sd
#>    <chr>   <chr>   <dbl> <chr>      <dbl> <dbl>      <dbl>       <dbl>     <dbl>
#>  1 USA-18… Grant       2 M             47  1869          1       1.01      0.509
#>  2 USA-18… Grant       2 M             48  1870          2       1.01      0.509
#>  3 USA-18… Grant       2 M             49  1871          3       1.01      0.509
#>  4 USA-18… Grant       2 M             50  1872          4       1.01      0.509
#>  5 USA-18… Grant       2 M             51  1873          5       1.01      0.509
#>  6 USA-18… Grant       2 M             52  1874          6       1.01      0.509
#>  7 USA-18… Grant       2 M             53  1875          7       1.01      0.509
#>  8 USA-18… Grant       2 M             54  1876          8       1.01      0.509
#>  9 USA-18… Grant       2 M             55  1877          9       1.01      0.509
#> 10 USA-18… Hayes       2 M             55  1877          1       0.464     0.545
#> # ℹ 17,676 more rows
#> # ℹ 6 more variables: theta2_mean <dbl>, theta2_sd <dbl>, theta3_mean <dbl>,
#> #   theta3_sd <dbl>, theta4_mean <dbl>, theta4_sd <dbl>
…
