Add (Surplus and Gross) Domestic Product Data (DEPRECATED) — add_sdp_gdp • peacesciencer
…
    Anders, Therese, Christopher J. Fariss, and Jonathan N. Markowitz. 2020.
"Bread Before Guns or Butter: Introducing Surplus Domestic Product (SDP)"
International Studies Quarterly 64(2): 392–405.

    Author

    Steven V. Miller

    Examples

# just call `library(tidyverse)` at the top of the your script
library(magrittr)

cow_ddy %>% add_sdp_gdp()
#> # A tibble: 2,214,930 × 11
#>    ccode1 ccode2  year wbgdp2011est1 wbpopest1 sdpest1 wbgdppc2011est1
#>     <dbl>  <dbl> <dbl>         <dbl>     <dbl>   <dbl>           <dbl>
#>  1      2     20  1920          27.6      18.4    27.5            9.19
#>  2      2     20  1921          27.6      18.5    27.5            9.18
#>  3      2     20  1922          27.7      18.5    27.6            9.21
#>  4      2     20  1923          27.8      18.5    27.7            9.26
#>  5      2     20  1924          27.8      18.5    27.7            9.30
#>  6      2     20  1925          27.9      18.5    27.8            9.32
#>  7      2     20  1926          27.9      18.5    27.8            9.34
#>  8      2     20  1927          27.9      18.6    27.8            9.35
#>  9      2     20  1928          27.9      18.6    27.8            9.36
#> 10      2     20  1929          27.9      18.6    27.8            9.35
#> # ℹ 2,214,920 more rows
#> # ℹ 4 more variables: wbgdp2011est2 <dbl>, wbpopest2 <dbl>, sdpest2 <dbl>,
#> #   wbgdppc2011est2 <dbl>

create_stateyears() %>% add_sdp_gdp()
#> Joining with `by = join_by(ccode, year)`
#> # A tibble: 17,511 × 7
#>    ccode cw_name                year wbgdp2011est wbpopest sdpest wbgdppc2011est
#>    <dbl> <chr>                 <dbl>        <dbl>    <dbl>  <dbl>          <dbl>
#>  1     2 United States of Ame…  1816         23.6     15.9   22.9           7.66
#>  2     2 United States of Ame…  1817         23.6     16.0   22.9           7.64
#>  3     2 United States of Ame…  1818         23.6     16.0   22.9           7.64
#>  4     2 United States of Ame…  1819         23.7     16.0   23.0           7.66
#>  5     2 United States of Ame…  1820         23.7     16.1   23.0           7.66
#>  6     2 United States of Ame…  1821         23.8     16.1   23.1           7.68
#>  7     2 United States of Ame…  1822         23.8     16.1   23.1           7.70
#>  8     2 United States of Ame…  1823         23.8     16.1   23.1           7.69
#>  9     2 United States of Ame…  1824         23.9     16.2   23.2           7.69
#> 10     2 United States of Ame…  1825         23.9     16.2   23.3           7.72
#> # ℹ 17,501 more rows

create_stateyears(system = "gw") %>% add_sdp_gdp()
#> Joining with `by = join_by(gwcode, year)`
#> # A tibble: 20,652 × 8
#>    gwcode gw_name   microstate  year wbgdp2011est wbpopest sdpest wbgdppc2011est
#>     <dbl> <chr>          <dbl> <dbl>        <dbl>    <dbl>  <dbl>          <dbl>
#>  1      2 United S…          0  1816         23.6     15.9   22.8           7.66
#>  2      2 United S…          0  1817         23.6     16.0   22.8           7.64
#>  3      2 United S…          0  1818         23.6     16.0   22.9           7.64
#>  4      2 United S…          0  1819         23.7     16.0   22.9           7.66
#>  5      2 United S…          0  1820         23.7     16.1   23.0           7.66
#>  6      2 United S…          0  1821         23.8     16.1   23.0           7.68
#>  7      2 United S…          0  1822         23.8     16.1   23.1           7.70
#>  8      2 United S…          0  1823         23.8     16.1   23.1           7.69
#>  9      2 United S…          0  1824         23.9     16.2   23.2           7.69
#> 10      2 United S…          0  1825         23.9     16.2   23.2           7.72
#> # ℹ 20,642 more rows
…
