Add Peace Years to Your Conflict Data — add_peace_years • peacesciencer
…
add_cow_mids(keep = NULL) %>%
add_contiguity() %>%
add_cow_majors() %>%
filter_prd()  %>%
add_peace_years()
#> Joining with `by = join_by(ccode1, ccode2, year)`
#> add_gml_mids() IMPORTANT MESSAGE: By default, this function whittles dispute-year data into dyad-year data by first selecting on unique onsets. Thereafter, where duplicates remain, it whittles dispute-year data into dyad-year data in the following order: 1) retaining highest `fatality`, 2) retaining highest `hostlev`, 3) retaining highest estimated `mindur`, 4) retaining highest estimated `maxdur`, 5) retaining reciprocated over non-reciprocated observations, 6) retaining the observation with the lowest start month, and, where duplicates still remained (and they don't), 7) forcibly dropping all duplicates for observations that are otherwise very similar.
#> See: http://svmiller.com/peacesciencer/articles/coerce-dispute-year-dyad-year.html
#> Joining with `by = join_by(ccode1, ccode2, year)`
#> add_cow_mids() IMPORTANT MESSAGE: By default, this function whittles dispute-year data into dyad-year data by first selecting on unique onsets. Thereafter, where duplicates remain, it whittles dispute-year data into dyad-year data in the following order: 1) retaining highest `fatality`, 2) retaining highest `hostlev`, 3) retaining highest estimated `mindur`, 4) retaining highest estimated `maxdur`, 5) retaining reciprocated over non-reciprocated observations, 6) retaining the observation with the lowest start month, and, where duplicates still remained (and they don't), 7) forcibly dropping all duplicates for observations that are otherwise very similar.
#> See: http://svmiller.com/peacesciencer/articles/coerce-dispute-year-dyad-year.html
#> Joining with `by = join_by(ccode1, ccode2, year)`
#> Joining with `by = join_by(year, dyad)`
#> Joining with `by = join_by(year, dyad)`
#> # A tibble: 246,302 × 19
#>    ccode1 ccode2  year gmlmidonset gmlmi…¹ init1 init2 sidea1 sidea2 orig1 orig2
#>     <dbl>  <dbl> <dbl>       <dbl>   <dbl> <dbl> <dbl>  <dbl>  <dbl> <dbl> <dbl>
#>  1      2     20  1920           0       0    NA    NA     NA     NA    NA    NA
#>  2      2     20  1921           0       0    NA    NA     NA     NA    NA    NA
#>  3      2     20  1922           0       0    NA    NA     NA     NA    NA    NA
#>  4      2     20  1923           0       0    NA    NA     NA     NA    NA    NA
#>  5      2     20  1924           0       0    NA    NA     NA     NA    NA    NA
#>  6      2     20  1925           0       0    NA    NA     NA     NA    NA    NA
#>  7      2     20  1926           0       0    NA    NA     NA     NA    NA    NA
#>  8      2     20  1927           0       0    NA    NA     NA     NA    NA    NA
#>  9      2     20  1928           0       0    NA    NA     NA     NA    NA    NA
#> 10      2     20  1929           0       0    NA    NA     NA     NA    NA    NA
#> # … with 246,292 more rows, 8 more variables: cowmidonset <dbl>,
#> #   cowmidongoing <dbl>, conttype <dbl>, cowmaj1 <dbl>, cowmaj2 <dbl>,
#> #   prd <dbl>, cowmidspell <dbl>, gmlmidspell <dbl>, and abbreviated variable
#> #   name ¹​gmlmidongoing
…
