Add Correlates of War direct contiguity information to a data frame — add_contiguity • peacesciencer
…
    Author

    Steven V. Miller

    Examples

# \donttest{
# just call `library(tidyverse)` at the top of the your script
library(magrittr)

cow_ddy %>% add_contiguity()
#> # A tibble: 2,214,930 × 4
#>    ccode1 ccode2  year conttype
#>     <dbl>  <dbl> <dbl>    <dbl>
#>  1      2     20  1920        1
#>  2      2     20  1921        1
#>  3      2     20  1922        1
#>  4      2     20  1923        1
#>  5      2     20  1924        1
#>  6      2     20  1925        1
#>  7      2     20  1926        1
#>  8      2     20  1927        1
#>  9      2     20  1928        1
#> 10      2     20  1929        1
#> # ℹ 2,214,920 more rows

create_stateyears() %>% add_contiguity()
#> Joining with `by = join_by(ccode, year)`
#> # A tibble: 17,511 × 5
#>    ccode cw_name                   year  land   sea
#>    <dbl> <chr>                    <dbl> <dbl> <dbl>
#>  1     2 United States of America  1816     0     0
#>  2     2 United States of America  1817     0     0
#>  3     2 United States of America  1818     0     0
#>  4     2 United States of America  1819     0     0
#>  5     2 United States of America  1820     0     0
#>  6     2 United States of America  1821     0     0
#>  7     2 United States of America  1822     0     0
#>  8     2 United States of America  1823     0     0
#>  9     2 United States of America  1824     0     0
#> 10     2 United States of America  1825     0     0
#> # ℹ 17,501 more rows
…
