Add fractionalization/polarization estimates from CREG to a data frame — add_creg_fractionalization • peacesciencer
…
    Author

    Steven V. Miller

    Examples

# \donttest{
# just call `library(tidyverse)` at the top of the your script
library(magrittr)

cow_ddy %>% add_creg_fractionalization()
#> # A tibble: 2,214,930 × 11
#>    ccode1 ccode2  year ethfrac1 ethpol1 relfrac1 relpol1 ethfrac2 ethpol2
#>     <dbl>  <dbl> <dbl>    <dbl>   <dbl>    <dbl>   <dbl>    <dbl>   <dbl>
#>  1      2     20  1920       NA      NA       NA      NA       NA      NA
#>  2      2     20  1921       NA      NA       NA      NA       NA      NA
#>  3      2     20  1922       NA      NA       NA      NA       NA      NA
#>  4      2     20  1923       NA      NA       NA      NA       NA      NA
#>  5      2     20  1924       NA      NA       NA      NA       NA      NA
#>  6      2     20  1925       NA      NA       NA      NA       NA      NA
#>  7      2     20  1926       NA      NA       NA      NA       NA      NA
#>  8      2     20  1927       NA      NA       NA      NA       NA      NA
#>  9      2     20  1928       NA      NA       NA      NA       NA      NA
#> 10      2     20  1929       NA      NA       NA      NA       NA      NA
#> # ℹ 2,214,920 more rows
#> # ℹ 2 more variables: relfrac2 <dbl>, relpol2 <dbl>

create_stateyears() %>% add_creg_fractionalization()
#> Joining with `by = join_by(ccode, year)`
#> # A tibble: 17,511 × 7
#>    ccode cw_name                   year ethfrac ethpol relfrac relpol
#>    <dbl> <chr>                    <dbl>   <dbl>  <dbl>   <dbl>  <dbl>
#>  1     2 United States of America  1816      NA     NA      NA     NA
#>  2     2 United States of America  1817      NA     NA      NA     NA
#>  3     2 United States of America  1818      NA     NA      NA     NA
#>  4     2 United States of America  1819      NA     NA      NA     NA
#>  5     2 United States of America  1820      NA     NA      NA     NA
#>  6     2 United States of America  1821      NA     NA      NA     NA
#>  7     2 United States of America  1822      NA     NA      NA     NA
#>  8     2 United States of America  1823      NA     NA      NA     NA
#>  9     2 United States of America  1824      NA     NA      NA     NA
#> 10     2 United States of America  1825      NA     NA      NA     NA
#> # ℹ 17,501 more rows

create_stateyears(system = "gw") %>% add_creg_fractionalization()
#> Joining with `by = join_by(gwcode, year)`
#> # A tibble: 20,652 × 8
#>    gwcode gw_name                 microstate  year ethfrac ethpol relfrac relpol
#>     <dbl> <chr>                        <dbl> <dbl>   <dbl>  <dbl>   <dbl>  <dbl>
#>  1      2 United States of Ameri…          0  1816      NA     NA      NA     NA
#>  2      2 United States of Ameri…          0  1817      NA     NA      NA     NA
#>  3      2 United States of Ameri…          0  1818      NA     NA      NA     NA
#>  4      2 United States of Ameri…          0  1819      NA     NA      NA     NA
#>  5      2 United States of Ameri…          0  1820      NA     NA      NA     NA
#>  6      2 United States of Ameri…          0  1821      NA     NA      NA     NA
#>  7      2 United States of Ameri…          0  1822      NA     NA      NA     NA
#>  8      2 United States of Ameri…          0  1823      NA     NA      NA     NA
#>  9      2 United States of Ameri…          0  1824      NA     NA      NA     NA
#> 10      2 United States of Ameri…          0  1825      NA     NA      NA     NA
#> # ℹ 20,642 more rows
…
