Add rugged terrain information to a data frame — add_rugged_terrain • peacesciencer
…
Riley, Shawn J., Stephen D. DeGloria, and Robert Elliot. 1999. "A Terrain Ruggedness
Index That Quantifies Topographic Heterogeneity,” Intermountain Journal of Sciences 5: 23–27.

    Author

    Steven V. Miller

    Examples

# \donttest{
# just call `library(tidyverse)` at the top of the your script
library(magrittr)

cow_ddy %>% add_rugged_terrain()
#> # A tibble: 2,101,440 × 7
#>    ccode1 ccode2  year rugged1 newlmtnest1 rugged2 newlmtnest2
#>     <dbl>  <dbl> <int>   <dbl>       <dbl>   <dbl>       <dbl>
#>  1      2     20  1920    1.07        3.21   0.775        2.80
#>  2      2     20  1921    1.07        3.21   0.775        2.80
#>  3      2     20  1922    1.07        3.21   0.775        2.80
#>  4      2     20  1923    1.07        3.21   0.775        2.80
#>  5      2     20  1924    1.07        3.21   0.775        2.80
#>  6      2     20  1925    1.07        3.21   0.775        2.80
#>  7      2     20  1926    1.07        3.21   0.775        2.80
#>  8      2     20  1927    1.07        3.21   0.775        2.80
#>  9      2     20  1928    1.07        3.21   0.775        2.80
#> 10      2     20  1929    1.07        3.21   0.775        2.80
#> # … with 2,101,430 more rows

create_stateyears() %>% add_rugged_terrain()
#> Joining, by = "ccode"
#> # A tibble: 16,926 × 5
#>    ccode statenme                  year rugged newlmtnest
#>    <dbl> <chr>                    <int>  <dbl>      <dbl>
#>  1     2 United States of America  1816   1.07       3.21
#>  2     2 United States of America  1817   1.07       3.21
#>  3     2 United States of America  1818   1.07       3.21
#>  4     2 United States of America  1819   1.07       3.21
#>  5     2 United States of America  1820   1.07       3.21
#>  6     2 United States of America  1821   1.07       3.21
#>  7     2 United States of America  1822   1.07       3.21
#>  8     2 United States of America  1823   1.07       3.21
#>  9     2 United States of America  1824   1.07       3.21
#> 10     2 United States of America  1825   1.07       3.21
#> # … with 16,916 more rows

create_stateyears(system = "gw") %>% add_rugged_terrain()
#> Joining, by = "gwcode"
#> # A tibble: 18,463 × 5
#>    gwcode statename                 year rugged newlmtnest
#>     <dbl> <chr>                    <int>  <dbl>      <dbl>
#>  1      2 United States of America  1816   1.07       3.21
#>  2      2 United States of America  1817   1.07       3.21
#>  3      2 United States of America  1818   1.07       3.21
#>  4      2 United States of America  1819   1.07       3.21
#>  5      2 United States of America  1820   1.07       3.21
#>  6      2 United States of America  1821   1.07       3.21
#>  7      2 United States of America  1822   1.07       3.21
#>  8      2 United States of America  1823   1.07       3.21
#>  9      2 United States of America  1824   1.07       3.21
#> 10      2 United States of America  1825   1.07       3.21
#> # … with 18,453 more rows
…
