Add Correlates of War trade data to a data frame — add_cow_trade • peacesciencer
…
    Author

    Steven V. Miller

    Examples

# just call `library(tidyverse)` at the top of the your script
library(magrittr)
# The function below works, but depends on running `download_extdata()` beforehand.
# cow_ddy %>% add_cow_trade()

create_stateyears() %>% add_cow_trade()
#> Joining with `by = join_by(ccode, year)`
#> # A tibble: 17,511 × 5
#>    ccode cw_name                   year imports exports
#>    <dbl> <chr>                    <dbl>   <dbl>   <dbl>
#>  1     2 United States of America  1816      NA      NA
#>  2     2 United States of America  1817      NA      NA
#>  3     2 United States of America  1818      NA      NA
#>  4     2 United States of America  1819      NA      NA
#>  5     2 United States of America  1820      NA      NA
#>  6     2 United States of America  1821      NA      NA
#>  7     2 United States of America  1822      NA      NA
#>  8     2 United States of America  1823      NA      NA
#>  9     2 United States of America  1824      NA      NA
#> 10     2 United States of America  1825      NA      NA
#> # ℹ 17,501 more rows
…
