Add Archigos political leader information to dyad-year and state-year data — add_archigos • peacesciencer
…
    Author

    Steven V. Miller

    Examples

# \donttest{
# just call `library(tidyverse)` at the top of the your script
library(magrittr)

cow_ddy %>% add_archigos()
#> # A tibble: 2,214,930 × 13
#>    ccode1 ccode2  year leadertransition1 irregular1 n_leaders1 jan1obsid1
#>     <dbl>  <dbl> <dbl>             <dbl>      <dbl>      <int> <chr>     
#>  1      2     20  1920                 0          0          1 USA-1913  
#>  2      2     20  1921                 1          0          2 USA-1913  
#>  3      2     20  1922                 0          0          1 USA-1921  
#>  4      2     20  1923                 1          0          2 USA-1921  
#>  5      2     20  1924                 0          0          1 USA-1923  
#>  6      2     20  1925                 0          0          1 USA-1923  
#>  7      2     20  1926                 0          0          1 USA-1923  
#>  8      2     20  1927                 0          0          1 USA-1923  
#>  9      2     20  1928                 0          0          1 USA-1923  
#> 10      2     20  1929                 1          0          2 USA-1923  
#> # ℹ 2,214,920 more rows
#> # ℹ 6 more variables: dec31obsid1 <chr>, leadertransition2 <dbl>,
#> #   irregular2 <dbl>, n_leaders2 <int>, jan1obsid2 <chr>, dec31obsid2 <chr>

create_stateyears() %>% add_archigos()
#> # A tibble: 17,511 × 8
#>    ccode cw_name  year leadertransition irregular n_leaders jan1obsid dec31obsid
#>    <dbl> <chr>   <dbl>            <dbl>     <dbl>     <int> <chr>     <chr>     
#>  1     2 United…  1816               NA        NA        NA NA        NA        
#>  2     2 United…  1817               NA        NA        NA NA        NA        
#>  3     2 United…  1818               NA        NA        NA NA        NA        
#>  4     2 United…  1819               NA        NA        NA NA        NA        
#>  5     2 United…  1820               NA        NA        NA NA        NA        
#>  6     2 United…  1821               NA        NA        NA NA        NA        
#>  7     2 United…  1822               NA        NA        NA NA        NA        
#>  8     2 United…  1823               NA        NA        NA NA        NA        
#>  9     2 United…  1824               NA        NA        NA NA        NA        
#> 10     2 United…  1825               NA        NA        NA NA        NA        
#> # ℹ 17,501 more rows
…
