Add Correlates of War major power information to a data frame — add_cow_majors • peacesciencer
…
    Correlates of War Project. 2017. "State System Membership List, v2016."
Online, https://correlatesofwar.org/data-sets/state-system-membership/

    Author

    Steven V. Miller

    Examples

# just call `library(tidyverse)` at the top of the your script
library(magrittr)

cow_ddy %>% add_cow_majors()
#> # A tibble: 2,214,930 × 5
#>    ccode1 ccode2  year cowmaj1 cowmaj2
#>     <dbl>  <dbl> <int>   <dbl>   <dbl>
#>  1      2     20  1920       1       0
#>  2      2     20  1921       1       0
#>  3      2     20  1922       1       0
#>  4      2     20  1923       1       0
#>  5      2     20  1924       1       0
#>  6      2     20  1925       1       0
#>  7      2     20  1926       1       0
#>  8      2     20  1927       1       0
#>  9      2     20  1928       1       0
#> 10      2     20  1929       1       0
#> # ℹ 2,214,920 more rows
…
