Create state-years from state system membership data — create_stateyears • peacesciencer
…
    References

    Miller, Steven V. 2019. ``Create Country-Year and (Non)-Directed Dyad-Year Data With Just a Few Lines in R''
http://svmiller.com/blog/2019/01/create-country-year-dyad-year-from-country-data/

    Author

    Steven V. Miller

    Examples

# CoW is default, will include years beyond 2016 (most recent CoW update)
create_stateyears()

#> # A tibble: 16,731 x 3
#>    ccode statenme                  year
#>    <dbl> <chr>                    <int>
#>  1     2 United States of America  1816
#>  2     2 United States of America  1817
#>  3     2 United States of America  1818
#>  4     2 United States of America  1819
#>  5     2 United States of America  1820
#>  6     2 United States of America  1821
#>  7     2 United States of America  1822
#>  8     2 United States of America  1823
#>  9     2 United States of America  1824
#> 10     2 United States of America  1825
#> # … with 16,721 more rows

# Gleditsch-Ward, include most recent years
create_stateyears(system="gw")

#> # A tibble: 18,289 x 3
#>    gwcode statename                 year
#>     <dbl> <chr>                    <int>
#>  1      2 United States of America  1816
#>  2      2 United States of America  1817
#>  3      2 United States of America  1818
#>  4      2 United States of America  1819
#>  5      2 United States of America  1820
#>  6      2 United States of America  1821
#>  7      2 United States of America  1822
#>  8      2 United States of America  1823
#>  9      2 United States of America  1824
#> 10      2 United States of America  1825
#> # … with 18,279 more rows

# Gleditsch-Ward, don't include most recent years
create_stateyears(system="gw", mry=FALSE)

#> # A tibble: 17,767 x 3
#>    gwcode statename                 year
#>     <dbl> <chr>                    <int>
#>  1      2 United States of America  1816
#>  2      2 United States of America  1817
#>  3      2 United States of America  1818
#>  4      2 United States of America  1819
#>  5      2 United States of America  1820
#>  6      2 United States of America  1821
#>  7      2 United States of America  1822
#>  8      2 United States of America  1823
#>  9      2 United States of America  1824
#> 10      2 United States of America  1825
#> # … with 17,757 more rows
…
