Create leader-days from leader data — create_leaderdays • peacesciencer
…
    Goemans, Henk E., Kristian Skrede Gleditsch, and Giacomo Chiozza. 2009. "Introducing Archigos: A Dataset of Political Leaders"
Journal of Peace Research 46(2): 269--83.

    Author

    Steven V. Miller

    Examples

# \donttest{
create_leaderdays()

#> Joining, by = c("ccode", "date")
#> # A tibble: 4,790,695 × 12
#>    obsid    ccode leadid  leader yrborn gender startdate  enddate    entry exit 
#>    <chr>    <dbl> <chr>   <chr>   <dbl> <chr>  <date>     <date>     <chr> <chr>
#>  1 USA-1869     2 81dcc1… Grant    1822 M      1869-03-04 1877-03-04 Regu… Regu…
#>  2 USA-1869     2 81dcc1… Grant    1822 M      1869-03-04 1877-03-04 Regu… Regu…
#>  3 USA-1869     2 81dcc1… Grant    1822 M      1869-03-04 1877-03-04 Regu… Regu…
#>  4 USA-1869     2 81dcc1… Grant    1822 M      1869-03-04 1877-03-04 Regu… Regu…
#>  5 USA-1869     2 81dcc1… Grant    1822 M      1869-03-04 1877-03-04 Regu… Regu…
#>  6 USA-1869     2 81dcc1… Grant    1822 M      1869-03-04 1877-03-04 Regu… Regu…
#>  7 USA-1869     2 81dcc1… Grant    1822 M      1869-03-04 1877-03-04 Regu… Regu…
#>  8 USA-1869     2 81dcc1… Grant    1822 M      1869-03-04 1877-03-04 Regu… Regu…
#>  9 USA-1869     2 81dcc1… Grant    1822 M      1869-03-04 1877-03-04 Regu… Regu…
#> 10 USA-1869     2 81dcc1… Grant    1822 M      1869-03-04 1877-03-04 Regu… Regu…
#> # … with 4,790,685 more rows, and 2 more variables: exitcode <chr>, date <date>
…
