Create dyad-years from state system membership data — create_dyadyears • peacesciencer
…
Miller, Steven V. 2025. isard: Overflow Data for Quantitative Peace
Science Research. https://CRAN.R-project.org/package=isard

    Author

    Steven V. Miller

    Examples

# \donttest{
# CoW is default, will include years beyond 2016 (most recent CoW update)
create_dyadyears()
#> Joining with `by = join_by(ccode1, ccode2, year)`
#> # A tibble: 2,214,930 × 3
#>    ccode1 ccode2  year
#>     <dbl>  <dbl> <int>
#>  1      2     20  1920
#>  2      2     20  1921
#>  3      2     20  1922
#>  4      2     20  1923
#>  5      2     20  1924
#>  6      2     20  1925
#>  7      2     20  1926
#>  8      2     20  1927
#>  9      2     20  1928
#> 10      2     20  1929
#> # ℹ 2,214,920 more rows

# Gleditsch-Ward, include most recent years
create_dyadyears(system="gw")
#> Joining with `by = join_by(gwcode1, gwcode2, year, microstate1, microstate2)`
#> # A tibble: 2,599,466 × 5
#>    gwcode1 gwcode2  year microstate1 microstate2
#>      <dbl>   <dbl> <int>       <dbl>       <dbl>
#>  1       2      20  1867           0           0
#>  2       2      20  1868           0           0
#>  3       2      20  1869           0           0
#>  4       2      20  1870           0           0
#>  5       2      20  1871           0           0
#>  6       2      20  1872           0           0
#>  7       2      20  1873           0           0
#>  8       2      20  1874           0           0
#>  9       2      20  1875           0           0
#> 10       2      20  1876           0           0
#> # ℹ 2,599,456 more rows

# Gleditsch-Ward, don't include most recent years
create_dyadyears(system="gw", mry=FALSE)
#> Joining with `by = join_by(gwcode1, gwcode2, year, microstate1, microstate2)`
#> # A tibble: 2,445,018 × 5
#>    gwcode1 gwcode2  year microstate1 microstate2
#>      <dbl>   <dbl> <int>       <dbl>       <dbl>
#>  1       2      20  1867           0           0
#>  2       2      20  1868           0           0
#>  3       2      20  1869           0           0
#>  4       2      20  1870           0           0
#>  5       2      20  1871           0           0
#>  6       2      20  1872           0           0
#>  7       2      20  1873           0           0
#>  8       2      20  1874           0           0
#>  9       2      20  1875           0           0
#> 10       2      20  1876           0           0
#> # ℹ 2,445,008 more rows

# Gleditsch-Ward, don't include most recent years, directed = FALSE
create_dyadyears(system="gw", mry=FALSE, directed = FALSE)
#> Joining with `by = join_by(gwcode1, gwcode2, year, microstate1, microstate2)`
#> # A tibble: 1,222,509 × 5
#>    gwcode1 gwcode2  year microstate1 microstate2
#>      <dbl>   <dbl> <int>       <dbl>       <dbl>
#>  1       2      20  1867           0           0
#>  2       2      20  1868           0           0
#>  3       2      20  1869           0           0
#>  4       2      20  1870           0           0
#>  5       2      20  1871           0           0
#>  6       2      20  1872           0           0
#>  7       2      20  1873           0           0
#>  8       2      20  1874           0           0
#>  9       2      20  1875           0           0
#> 10       2      20  1876           0           0
#> # ℹ 1,222,499 more rows
…
