Create leader-years from leader data — create_leaderyears • peacesciencer
…
    Goemans, Henk E., Kristian Skrede Gleditsch, and Giacomo Chiozza. 2009.
"Introducing Archigos: A Dataset of Political Leaders"
Journal of Peace Research 46(2): 269–83.

    Author

    Steven V. Miller

    Examples

# \donttest{
# standardize = 'none' is default
create_leaderyears()
#> # A tibble: 17,686 × 7
#>    obsid    leader gwcode gender leaderage  year yrinoffice
#>    <chr>    <chr>   <dbl> <chr>      <dbl> <dbl>      <dbl>
#>  1 USA-1869 Grant       2 M             47  1869          1
#>  2 USA-1869 Grant       2 M             48  1870          2
#>  3 USA-1869 Grant       2 M             49  1871          3
#>  4 USA-1869 Grant       2 M             50  1872          4
#>  5 USA-1869 Grant       2 M             51  1873          5
#>  6 USA-1869 Grant       2 M             52  1874          6
#>  7 USA-1869 Grant       2 M             53  1875          7
#>  8 USA-1869 Grant       2 M             54  1876          8
#>  9 USA-1869 Grant       2 M             55  1877          9
#> 10 USA-1877 Hayes       2 M             55  1877          1
#> # ℹ 17,676 more rows

create_leaderyears(standardize = 'gw')
#> # A tibble: 17,361 × 7
#>    obsid    leader gwcode gender leaderage  year yrinoffice
#>    <chr>    <chr>   <dbl> <chr>      <dbl> <dbl>      <dbl>
#>  1 USA-1869 Grant       2 M             47  1869          1
#>  2 USA-1869 Grant       2 M             48  1870          2
#>  3 USA-1869 Grant       2 M             49  1871          3
#>  4 USA-1869 Grant       2 M             50  1872          4
#>  5 USA-1869 Grant       2 M             51  1873          5
#>  6 USA-1869 Grant       2 M             52  1874          6
#>  7 USA-1869 Grant       2 M             53  1875          7
#>  8 USA-1869 Grant       2 M             54  1876          8
#>  9 USA-1869 Grant       2 M             55  1877          9
#> 10 USA-1877 Hayes       2 M             55  1877          1
#> # ℹ 17,351 more rows
…
