Create state-days from state system membership data — create_statedays • peacesciencer
…
    Miller, Steven V. 2019. “Create Country-Year and (Non)-Directed Dyad-Year
Data With Just a Few Lines in R”
https://svmiller.com/blog/2019/01/create-country-year-dyad-year-from-country-data/

    Author

    Steven V. Miller

    Examples

# \donttest{

# CoW is default, will include years beyond 2016 (most recent CoW update)
create_statedays()
#> # A tibble: 6,345,986 × 3
#>    ccode cw_name                  date      
#>    <dbl> <chr>                    <date>    
#>  1     2 United States of America 1816-01-01
#>  2     2 United States of America 1816-01-02
#>  3     2 United States of America 1816-01-03
#>  4     2 United States of America 1816-01-04
#>  5     2 United States of America 1816-01-05
#>  6     2 United States of America 1816-01-06
#>  7     2 United States of America 1816-01-07
#>  8     2 United States of America 1816-01-08
#>  9     2 United States of America 1816-01-09
#> 10     2 United States of America 1816-01-10
#> # ℹ 6,345,976 more rows

# Gleditsch-Ward, include most recent years
create_statedays(system="gw")
#> # A tibble: 7,497,730 × 4
#>    gwcode gw_name                  microstate date      
#>     <dbl> <chr>                         <dbl> <date>    
#>  1      2 United States of America          0 1816-01-01
#>  2      2 United States of America          0 1816-01-02
#>  3      2 United States of America          0 1816-01-03
#>  4      2 United States of America          0 1816-01-04
#>  5      2 United States of America          0 1816-01-05
#>  6      2 United States of America          0 1816-01-06
#>  7      2 United States of America          0 1816-01-07
#>  8      2 United States of America          0 1816-01-08
#>  9      2 United States of America          0 1816-01-09
#> 10      2 United States of America          0 1816-01-10
#> # ℹ 7,497,720 more rows
…
