Filter dyad-year data to include just politically relevant dyads — filter_prd • peacesciencer
…
    Steven V. Miller

    Examples

# \donttest{

# just call `library(tidyverse)` at the top of the your script
library(magrittr)

A <- cow_ddy %>% add_contiguity() %>% add_cow_majors() %>% filter_prd()
#> Joining, by = c("ccode1", "ccode2", "year")

A
#> # A tibble: 246,302 × 7
#>    ccode1 ccode2  year conttype cowmaj1 cowmaj2   prd
#>     <dbl>  <dbl> <int>    <dbl>   <dbl>   <dbl> <dbl>
#>  1      2     20  1920        1       1       0     1
#>  2      2     20  1921        1       1       0     1
#>  3      2     20  1922        1       1       0     1
#>  4      2     20  1923        1       1       0     1
#>  5      2     20  1924        1       1       0     1
#>  6      2     20  1925        1       1       0     1
#>  7      2     20  1926        1       1       0     1
#>  8      2     20  1927        1       1       0     1
#>  9      2     20  1928        1       1       0     1
#> 10      2     20  1929        1       1       0     1
#> # … with 246,292 more rows

# you can also use it as a shortcut for the other functions required
# to calculate politically relevant dyads.
B <- cow_ddy %>% filter_prd()
#> Joining, by = c("ccode1", "ccode2", "year")

B
#> # A tibble: 246,302 × 7
#>    ccode1 ccode2  year conttype cowmaj1 cowmaj2   prd
#>     <dbl>  <dbl> <int>    <dbl>   <dbl>   <dbl> <dbl>
#>  1      2     20  1920        1       1       0     1
#>  2      2     20  1921        1       1       0     1
#>  3      2     20  1922        1       1       0     1
#>  4      2     20  1923        1       1       0     1
#>  5      2     20  1924        1       1       0     1
#>  6      2     20  1925        1       1       0     1
#>  7      2     20  1926        1       1       0     1
#>  8      2     20  1927        1       1       0     1
#>  9      2     20  1928        1       1       0     1
#> 10      2     20  1929        1       1       0     1
#> # … with 246,292 more rows
…
