Get Version Information About Data Included in peacesciencer — ps_version • peacesciencer
…
    Examples

# What can you search for...
unique(ps_data_version$category)
#>  [1] "states"              "leaders"             "alliance"           
#>  [4] "democracy"           "capitals"            "contiguity"         
#>  [7] "igo"                 "majors"              "conflict_interstate"
#> [10] "distance"            "capabilities"        "gdp"                
#> [13] "sdp"                 "population"          "trade"              
#> [16] "conflict_intrastate" "fractionalization"   "polarization"       
#> [19] "terrain"             "rivalries"           "dyadic_similarity"  

# will show the data versions for everything
ps_version()
#> # A tibble: 32 × 4
#>    category   data                                      version bibtexkey       
#>    <chr>      <chr>                                     <chr>   <chr>           
#>  1 states     Correlates of War State System Membership 2016    cowstates2016   
#>  2 leaders    LEAD                                      2015    ellisetal2015le…
#>  3 leaders    Archigos                                  4.1     goemansetal2009…
#>  4 alliance   ATOP                                      5       leedsetal2002at…
#>  5 alliance   Correlates of War Formal Alliances        4.1     gibler2009ima   
#>  6 democracy  Polity                                    2017    marshalletal201…
#>  7 democracy  {QuickUDS}                                0.2.3   marquez2016qme  
#>  8 democracy  V-Dem                                     10      coppedgeetal202…
#>  9 capitals   {peacesciencer}                           2020    peacesciencer-p…
#> 10 contiguity Correlates of War Direct Contiguity       3.2     stinnettetal200…
#> # … with 22 more rows
…
