Whittle Duplicate Conflict-Years by Conflict Reciprocation — whittle_conflicts_reciprocation • peacesciencer
…
    Miller, Steven V. 2021. "How peacesciencer Coerces Dispute-Year Data into Dyad-Year Data".
URL: http://svmiller.com/peacesciencer/articles/coerce-dispute-year-dyad-year.html

    Author

    Steven V. Miller

    Examples

# \donttest{
# just call `library(tidyverse)` at the top of the your script
library(magrittr)
gml_dirdisp %>% whittle_conflicts_onsets() %>% whittle_conflicts_reciprocation()
#> # A tibble: 9,640 × 39
#>    dispnum ccode1 ccode2  year midongoing midonset sidea1 sidea2 revstate1
#>      <dbl>  <dbl>  <dbl> <dbl>      <dbl>    <dbl>  <dbl>  <dbl>     <dbl>
#>  1    2968      2     20  1979          1        1      0      1         0
#>  2    3900      2     20  1989          1        1      0      1         0
#>  3    3972      2     20  1991          1        1      1      0         1
#>  4    4183      2     20  1997          1        1      0      1         0
#>  5    1665      2     40  1921          1        1      1      0         1
#>  6    1677      2     40  1933          1        1      1      0         1
#>  7    1677      2     40  1934          1        0      1      0         1
#>  8     246      2     40  1960          1        1      1      0         1
#>  9     246      2     40  1961          1        0      1      0         1
#> 10      61      2     40  1962          1        1      1      0         1
#> # ℹ 9,630 more rows
#> # ℹ 30 more variables: revstate2 <dbl>, revtype11 <dbl>, revtype12 <dbl>,
#> #   revtype21 <dbl>, revtype22 <dbl>, fatality1 <dbl>, fatality2 <dbl>,
#> #   fatalpre1 <dbl>, fatalpre2 <dbl>, hiact1 <dbl>, hiact2 <dbl>,
#> #   hostlev1 <dbl>, hostlev2 <dbl>, orig1 <dbl>, orig2 <dbl>, hiact <dbl>,
#> #   hostlev <dbl>, mindur <dbl>, maxdur <dbl>, outcome <dbl>, settle <dbl>,
#> #   fatality <dbl>, fatalpre <dbl>, stmon <dbl>, endmon <dbl>, recip <dbl>, …

cow_mid_dirdisps %>% whittle_conflicts_onsets() %>% whittle_conflicts_reciprocation()
#> Joining with `by = join_by(dispnum)`
#> # A tibble: 10,590 × 19
#>    dispnum ccode1 ccode2  year dispongoing disponset sidea1 sidea2 fatality1
#>      <dbl>  <dbl>  <dbl> <dbl>       <dbl>     <dbl>  <dbl>  <dbl>     <dbl>
#>  1    2968      2     20  1979           1         1      0      1         0
#>  2    3900      2     20  1989           1         1      0      1         0
#>  3    3972      2     20  1991           1         1      1      0         0
#>  4    4183      2     20  1997           1         1      0      1         0
#>  5    1665      2     40  1921           1         1      1      0         0
#>  6    1677      2     40  1933           1         1      1      0         0
#>  7    1677      2     40  1934           1         0      1      0         0
#>  8     246      2     40  1960           1         1      0      1         0
#>  9     246      2     40  1961           1         0      0      1         0
#> 10      61      2     40  1962           1         1      1      0         0
#> # ℹ 10,580 more rows
#> # ℹ 10 more variables: fatality2 <dbl>, fatalpre1 <dbl>, fatalpre2 <dbl>,
#> #   hiact1 <dbl>, hiact2 <dbl>, hostlev1 <dbl>, hostlev2 <dbl>, orig1 <dbl>,
#> #   orig2 <dbl>, recip <dbl>
…
