Whittle Unique Conflict Onset-Years from Conflict-Year Data — whittle_conflicts_onsets • peacesciencer
…
    Miller, Steven V. 2021. "How peacesciencer Coerces Dispute-Year Data into Dyad-Year Data".
URL: http://svmiller.com/peacesciencer/articles/coerce-dispute-year-dyad-year.html

    Author

    Steven V. Miller

    Examples

# \donttest{
# just call `library(tidyverse)` at the top of the your script
library(magrittr)
gml_dirdisp %>% whittle_conflicts_onsets()

#> # A tibble: 9,802 × 40
#>    dispnum ccode1 ccode2  year midongoing midonset sidea1 sidea2 revstate1
#>      <dbl>  <dbl>  <dbl> <dbl>      <dbl>    <dbl>  <dbl>  <dbl>     <dbl>
#>  1       2      2    200  1902          1        1      1      0         1
#>  2       2    200      2  1902          1        1      0      1         1
#>  3       3    300    345  1913          1        1      1      0         1
#>  4       3    345    300  1913          1        1      0      1         0
#>  5       4    200    339  1946          1        1      0      1         0
#>  6       4    339    200  1946          1        1      1      0         0
#>  7       7    200    651  1951          1        1      1      0         0
#>  8       7    200    651  1952          1        0      1      0         0
#>  9       7    651    200  1951          1        1      0      1         1
#> 10       7    651    200  1952          1        0      0      1         1
#> # … with 9,792 more rows, and 31 more variables: revstate2 <dbl>,
#> #   revtype11 <dbl>, revtype12 <dbl>, revtype21 <dbl>, revtype22 <dbl>,
#> #   fatality1 <dbl>, fatality2 <dbl>, fatalpre1 <dbl>, fatalpre2 <dbl>,
#> #   hiact1 <dbl>, hiact2 <dbl>, hostlev1 <dbl>, hostlev2 <dbl>, orig1 <dbl>,
#> #   orig2 <dbl>, hiact <dbl>, hostlev <dbl>, mindur <dbl>, maxdur <dbl>,
#> #   outcome <dbl>, settle <dbl>, fatality <dbl>, fatalpre <dbl>, stmon <dbl>,
#> #   endmon <dbl>, recip <dbl>, numa <dbl>, numb <dbl>, ongo2010 <dbl>, …

cow_mid_dirdisps %>% whittle_conflicts_onsets()

#> # A tibble: 10,874 × 19
#>    dispnum ccode1 ccode2  year dispongoing disponset sidea1 sidea2 fatality1
#>      <dbl>  <dbl>  <dbl> <dbl>       <dbl>     <dbl>  <dbl>  <dbl>     <dbl>
#>  1       2      2    200  1902           1         1      1      0         0
#>  2       2    200      2  1902           1         1      0      1         0
#>  3       3    300    345  1913           1         1      1      0         0
#>  4       3    345    300  1913           1         1      0      1         0
#>  5       4    200    339  1946           1         1      0      1         2
#>  6       4    339    200  1946           1         1      1      0         0
#>  7       7    200    651  1951           1         1      1      0         1
#>  8       7    200    651  1952           1         0      1      0         1
#>  9       7    651    200  1951           1         1      0      1         2
#> 10       7    651    200  1952           1         0      0      1         2
#> # … with 10,864 more rows, and 10 more variables: fatality2 <dbl>,
#> #   fatalpre1 <dbl>, fatalpre2 <dbl>, hiact1 <dbl>, hiact2 <dbl>,
#> #   hostlev1 <dbl>, hostlev2 <dbl>, orig1 <dbl>, orig2 <dbl>, duplicated <dbl>
…
